# Blender v2.80 (sub 75) OBJ File: ''
# www.blender.org
o Torus
v 1.250000 0.000000 0.000000
v 1.216506 0.125000 0.000000
v 1.125000 0.216506 0.000000
v 1.000000 0.250000 0.000000
v 0.875000 0.216506 0.000000
v 0.783494 0.125000 0.000000
v 0.750000 0.000000 0.000000
v 0.783494 -0.125000 0.000000
v 0.875000 -0.216506 0.000000
v 1.000000 -0.250000 0.000000
v 1.125000 -0.216506 0.000000
v 1.216506 -0.125000 0.000000
v 1.239306 0.000000 -0.163158
v 1.206099 0.125000 -0.158786
v 1.115376 0.216506 -0.146842
v 0.991445 0.250000 -0.130526
v 0.867514 0.216506 -0.114210
v 0.776791 0.125000 -0.102266
v 0.743584 0.000000 -0.097895
v 0.776791 -0.125000 -0.102266
v 0.867514 -0.216506 -0.114210
v 0.991445 -0.250000 -0.130526
v 1.115376 -0.216506 -0.146842
v 1.206099 -0.125000 -0.158786
v 1.207407 0.000000 -0.323524
v 1.175055 0.125000 -0.314855
v 1.086667 0.216506 -0.291171
v 0.965926 0.250000 -0.258819
v 0.845185 0.216506 -0.226467
v 0.756797 0.125000 -0.202783
v 0.724444 0.000000 -0.194114
v 0.756797 -0.125000 -0.202783
v 0.845185 -0.216506 -0.226467
v 0.965926 -0.250000 -0.258819
v 1.086667 -0.216506 -0.291171
v 1.175055 -0.125000 -0.314855
v 1.154849 0.000000 -0.478354
v 1.123905 0.125000 -0.465537
v 1.039364 0.216506 -0.430519
v 0.923880 0.250000 -0.382683
v 0.808395 0.216506 -0.334848
v 0.723854 0.125000 -0.299830
v 0.692910 0.000000 -0.287013
v 0.723854 -0.125000 -0.299830
v 0.808395 -0.216506 -0.334848
v 0.923880 -0.250000 -0.382683
v 1.039364 -0.216506 -0.430519
v 1.123905 -0.125000 -0.465537
v 1.082532 0.000000 -0.625000
v 1.053525 0.125000 -0.608253
v 0.974279 0.216506 -0.562500
v 0.866025 0.250000 -0.500000
v 0.757772 0.216506 -0.437500
v 0.678525 0.125000 -0.391747
v 0.649519 0.000000 -0.375000
v 0.678525 -0.125000 -0.391747
v 0.757772 -0.216506 -0.437500
v 0.866025 -0.250000 -0.500000
v 0.974279 -0.216506 -0.562500
v 1.053525 -0.125000 -0.608253
v 0.991692 0.000000 -0.760952
v 0.965119 0.125000 -0.740562
v 0.892523 0.216506 -0.684856
v 0.793353 0.250000 -0.608761
v 0.694184 0.216506 -0.532666
v 0.621587 0.125000 -0.476961
v 0.595015 0.000000 -0.456571
v 0.621587 -0.125000 -0.476961
v 0.694184 -0.216506 -0.532666
v 0.793353 -0.250000 -0.608761
v 0.892523 -0.216506 -0.684856
v 0.965119 -0.125000 -0.740562
v 0.883883 0.000000 -0.883884
v 0.860200 0.125000 -0.860200
v 0.795495 0.216506 -0.795495
v 0.707107 0.250000 -0.707107
v 0.618718 0.216506 -0.618719
v 0.554014 0.125000 -0.554014
v 0.530330 0.000000 -0.530330
v 0.554014 -0.125000 -0.554014
v 0.618718 -0.216506 -0.618719
v 0.707107 -0.250000 -0.707107
v 0.795495 -0.216506 -0.795495
v 0.860200 -0.125000 -0.860200
v 0.760952 0.000000 -0.991691
v 0.740562 0.125000 -0.965119
v 0.684857 0.216506 -0.892522
v 0.608762 0.250000 -0.793353
v 0.532666 0.216506 -0.694184
v 0.476961 0.125000 -0.621587
v 0.456571 0.000000 -0.595015
v 0.476961 -0.125000 -0.621587
v 0.532666 -0.216506 -0.694184
v 0.608762 -0.250000 -0.793353
v 0.684857 -0.216506 -0.892522
v 0.740562 -0.125000 -0.965119
v 0.625000 0.000000 -1.082532
v 0.608253 0.125000 -1.053525
v 0.562500 0.216506 -0.974279
v 0.500000 0.250000 -0.866025
v 0.437500 0.216506 -0.757772
v 0.391747 0.125000 -0.678525
v 0.375000 0.000000 -0.649519
v 0.391747 -0.125000 -0.678525
v 0.437500 -0.216506 -0.757772
v 0.500000 -0.250000 -0.866025
v 0.562500 -0.216506 -0.974279
v 0.608253 -0.125000 -1.053525
v 0.478355 0.000000 -1.154849
v 0.465537 0.125000 -1.123905
v 0.430519 0.216506 -1.039364
v 0.382684 0.250000 -0.923879
v 0.334848 0.216506 -0.808394
v 0.299830 0.125000 -0.723854
v 0.287013 0.000000 -0.692910
v 0.299830 -0.125000 -0.723854
v 0.334848 -0.216506 -0.808394
v 0.382684 -0.250000 -0.923879
v 0.430519 -0.216506 -1.039364
v 0.465537 -0.125000 -1.123905
v 0.323524 0.000000 -1.207407
v 0.314855 0.125000 -1.175055
v 0.291171 0.216506 -1.086667
v 0.258819 0.250000 -0.965926
v 0.226467 0.216506 -0.845185
v 0.202783 0.125000 -0.756797
v 0.194114 0.000000 -0.724444
v 0.202783 -0.125000 -0.756797
v 0.226467 -0.216506 -0.845185
v 0.258819 -0.250000 -0.965926
v 0.291171 -0.216506 -1.086667
v 0.314855 -0.125000 -1.175055
v 0.163158 0.000000 -1.239306
v 0.158786 0.125000 -1.206099
v 0.146842 0.216506 -1.115376
v 0.130526 0.250000 -0.991445
v 0.114210 0.216506 -0.867514
v 0.102266 0.125000 -0.776791
v 0.097895 0.000000 -0.743584
v 0.102266 -0.125000 -0.776791
v 0.114210 -0.216506 -0.867514
v 0.130526 -0.250000 -0.991445
v 0.146842 -0.216506 -1.115376
v 0.158786 -0.125000 -1.206099
v 0.000000 0.000000 -1.250000
v 0.000000 0.125000 -1.216506
v 0.000000 0.216506 -1.125000
v 0.000000 0.250000 -1.000000
v 0.000000 0.216506 -0.875000
v 0.000000 0.125000 -0.783494
v 0.000000 0.000000 -0.750000
v 0.000000 -0.125000 -0.783494
v 0.000000 -0.216506 -0.875000
v 0.000000 -0.250000 -1.000000
v 0.000000 -0.216506 -1.125000
v 0.000000 -0.125000 -1.216506
v -0.163158 0.000000 -1.239306
v -0.158786 0.125000 -1.206099
v -0.146842 0.216506 -1.115375
v -0.130526 0.250000 -0.991445
v -0.114211 0.216506 -0.867514
v -0.102267 0.125000 -0.776791
v -0.097895 0.000000 -0.743584
v -0.102267 -0.125000 -0.776791
v -0.114211 -0.216506 -0.867514
v -0.130526 -0.250000 -0.991445
v -0.146842 -0.216506 -1.115375
v -0.158786 -0.125000 -1.206099
v -0.323524 0.000000 -1.207407
v -0.314855 0.125000 -1.175055
v -0.291171 0.216506 -1.086667
v -0.258819 0.250000 -0.965926
v -0.226467 0.216506 -0.845185
v -0.202783 0.125000 -0.756797
v -0.194114 0.000000 -0.724444
v -0.202783 -0.125000 -0.756797
v -0.226467 -0.216506 -0.845185
v -0.258819 -0.250000 -0.965926
v -0.291171 -0.216506 -1.086667
v -0.314855 -0.125000 -1.175055
v -0.478354 0.000000 -1.154849
v -0.465537 0.125000 -1.123905
v -0.430519 0.216506 -1.039364
v -0.382684 0.250000 -0.923880
v -0.334848 0.216506 -0.808395
v -0.299830 0.125000 -0.723854
v -0.287013 0.000000 -0.692910
v -0.299830 -0.125000 -0.723854
v -0.334848 -0.216506 -0.808395
v -0.382684 -0.250000 -0.923880
v -0.430519 -0.216506 -1.039364
v -0.465537 -0.125000 -1.123905
v -0.625000 0.000000 -1.082532
v -0.608253 0.125000 -1.053526
v -0.562500 0.216506 -0.974279
v -0.500000 0.250000 -0.866026
v -0.437500 0.216506 -0.757772
v -0.391747 0.125000 -0.678525
v -0.375000 0.000000 -0.649519
v -0.391747 -0.125000 -0.678525
v -0.437500 -0.216506 -0.757772
v -0.500000 -0.250000 -0.866026
v -0.562500 -0.216506 -0.974279
v -0.608253 -0.125000 -1.053526
v -0.760952 0.000000 -0.991692
v -0.740562 0.125000 -0.965119
v -0.684857 0.216506 -0.892522
v -0.608761 0.250000 -0.793353
v -0.532666 0.216506 -0.694184
v -0.476961 0.125000 -0.621587
v -0.456571 0.000000 -0.595015
v -0.476961 -0.125000 -0.621587
v -0.532666 -0.216506 -0.694184
v -0.608761 -0.250000 -0.793353
v -0.684857 -0.216506 -0.892522
v -0.740562 -0.125000 -0.965119
v -0.883884 0.000000 -0.883883
v -0.860200 0.125000 -0.860200
v -0.795495 0.216506 -0.795495
v -0.707107 0.250000 -0.707107
v -0.618719 0.216506 -0.618718
v -0.554014 0.125000 -0.554013
v -0.530330 0.000000 -0.530330
v -0.554014 -0.125000 -0.554013
v -0.618719 -0.216506 -0.618718
v -0.707107 -0.250000 -0.707107
v -0.795495 -0.216506 -0.795495
v -0.860200 -0.125000 -0.860200
v -0.991692 0.000000 -0.760952
v -0.965119 0.125000 -0.740562
v -0.892522 0.216506 -0.684857
v -0.793353 0.250000 -0.608761
v -0.694184 0.216506 -0.532666
v -0.621587 0.125000 -0.476961
v -0.595015 0.000000 -0.456571
v -0.621587 -0.125000 -0.476961
v -0.694184 -0.216506 -0.532666
v -0.793353 -0.250000 -0.608761
v -0.892522 -0.216506 -0.684857
v -0.965119 -0.125000 -0.740562
v -1.082532 0.000000 -0.625000
v -1.053525 0.125000 -0.608253
v -0.974278 0.216506 -0.562500
v -0.866025 0.250000 -0.500000
v -0.757772 0.216506 -0.437500
v -0.678525 0.125000 -0.391747
v -0.649519 0.000000 -0.375000
v -0.678525 -0.125000 -0.391747
v -0.757772 -0.216506 -0.437500
v -0.866025 -0.250000 -0.500000
v -0.974278 -0.216506 -0.562500
v -1.053525 -0.125000 -0.608253
v -1.154849 0.000000 -0.478354
v -1.123905 0.125000 -0.465537
v -1.039364 0.216506 -0.430519
v -0.923880 0.250000 -0.382683
v -0.808395 0.216506 -0.334848
v -0.723854 0.125000 -0.299830
v -0.692910 0.000000 -0.287013
v -0.723854 -0.125000 -0.299830
v -0.808395 -0.216506 -0.334848
v -0.923880 -0.250000 -0.382683
v -1.039364 -0.216506 -0.430519
v -1.123905 -0.125000 -0.465537
v -1.207407 0.000000 -0.323524
v -1.175055 0.125000 -0.314855
v -1.086667 0.216506 -0.291171
v -0.965926 0.250000 -0.258819
v -0.845185 0.216506 -0.226467
v -0.756797 0.125000 -0.202783
v -0.724444 0.000000 -0.194114
v -0.756797 -0.125000 -0.202783
v -0.845185 -0.216506 -0.226467
v -0.965926 -0.250000 -0.258819
v -1.086667 -0.216506 -0.291171
v -1.175055 -0.125000 -0.314855
v -1.239306 0.000000 -0.163158
v -1.206099 0.125000 -0.158786
v -1.115375 0.216506 -0.146842
v -0.991445 0.250000 -0.130526
v -0.867514 0.216506 -0.114211
v -0.776791 0.125000 -0.102267
v -0.743584 0.000000 -0.097895
v -0.776791 -0.125000 -0.102267
v -0.867514 -0.216506 -0.114211
v -0.991445 -0.250000 -0.130526
v -1.115375 -0.216506 -0.146842
v -1.206099 -0.125000 -0.158786
v -1.250000 0.000000 -0.000000
v -1.216506 0.125000 -0.000000
v -1.125000 0.216506 -0.000000
v -1.000000 0.250000 -0.000000
v -0.875000 0.216506 -0.000000
v -0.783494 0.125000 -0.000000
v -0.750000 0.000000 -0.000000
v -0.783494 -0.125000 -0.000000
v -0.875000 -0.216506 -0.000000
v -1.000000 -0.250000 -0.000000
v -1.125000 -0.216506 -0.000000
v -1.216506 -0.125000 -0.000000
v -1.239306 0.000000 0.163158
v -1.206099 0.125000 0.158786
v -1.115375 0.216506 0.146842
v -0.991445 0.250000 0.130526
v -0.867514 0.216506 0.114211
v -0.776791 0.125000 0.102267
v -0.743584 0.000000 0.097895
v -0.776791 -0.125000 0.102267
v -0.867514 -0.216506 0.114211
v -0.991445 -0.250000 0.130526
v -1.115375 -0.216506 0.146842
v -1.206099 -0.125000 0.158786
v -1.207407 0.000000 0.323524
v -1.175055 0.125000 0.314855
v -1.086667 0.216506 0.291171
v -0.965926 0.250000 0.258819
v -0.845185 0.216506 0.226467
v -0.756797 0.125000 0.202783
v -0.724444 0.000000 0.194114
v -0.756797 -0.125000 0.202783
v -0.845185 -0.216506 0.226467
v -0.965926 -0.250000 0.258819
v -1.086667 -0.216506 0.291171
v -1.175055 -0.125000 0.314855
v -1.154850 0.000000 0.478354
v -1.123906 0.125000 0.465536
v -1.039365 0.216506 0.430518
v -0.923880 0.250000 0.382683
v -0.808395 0.216506 0.334848
v -0.723854 0.125000 0.299830
v -0.692910 0.000000 0.287012
v -0.723854 -0.125000 0.299830
v -0.808395 -0.216506 0.334848
v -0.923880 -0.250000 0.382683
v -1.039365 -0.216506 0.430518
v -1.123906 -0.125000 0.465536
v -1.082532 0.000000 0.625000
v -1.053526 0.125000 0.608253
v -0.974279 0.216506 0.562500
v -0.866026 0.250000 0.500000
v -0.757772 0.216506 0.437500
v -0.678525 0.125000 0.391747
v -0.649519 0.000000 0.375000
v -0.678525 -0.125000 0.391747
v -0.757772 -0.216506 0.437500
v -0.866026 -0.250000 0.500000
v -0.974279 -0.216506 0.562500
v -1.053526 -0.125000 0.608253
v -0.991692 0.000000 0.760952
v -0.965119 0.125000 0.740562
v -0.892522 0.216506 0.684857
v -0.793353 0.250000 0.608761
v -0.694184 0.216506 0.532666
v -0.621587 0.125000 0.476961
v -0.595015 0.000000 0.456571
v -0.621587 -0.125000 0.476961
v -0.694184 -0.216506 0.532666
v -0.793353 -0.250000 0.608761
v -0.892522 -0.216506 0.684857
v -0.965119 -0.125000 0.740562
v -0.883884 0.000000 0.883883
v -0.860200 0.125000 0.860200
v -0.795495 0.216506 0.795495
v -0.707107 0.250000 0.707107
v -0.618719 0.216506 0.618718
v -0.554014 0.125000 0.554013
v -0.530330 0.000000 0.530330
v -0.554014 -0.125000 0.554013
v -0.618719 -0.216506 0.618718
v -0.707107 -0.250000 0.707107
v -0.795495 -0.216506 0.795495
v -0.860200 -0.125000 0.860200
v -0.760952 0.000000 0.991691
v -0.740563 0.125000 0.965119
v -0.684857 0.216506 0.892522
v -0.608762 0.250000 0.793353
v -0.532667 0.216506 0.694184
v -0.476961 0.125000 0.621587
v -0.456571 0.000000 0.595015
v -0.476961 -0.125000 0.621587
v -0.532667 -0.216506 0.694184
v -0.608762 -0.250000 0.793353
v -0.684857 -0.216506 0.892522
v -0.740563 -0.125000 0.965119
v -0.625000 0.000000 1.082532
v -0.608253 0.125000 1.053526
v -0.562500 0.216506 0.974279
v -0.500000 0.250000 0.866026
v -0.437500 0.216506 0.757772
v -0.391747 0.125000 0.678525
v -0.375000 0.000000 0.649519
v -0.391747 -0.125000 0.678525
v -0.437500 -0.216506 0.757772
v -0.500000 -0.250000 0.866026
v -0.562500 -0.216506 0.974279
v -0.608253 -0.125000 1.053526
v -0.478354 0.000000 1.154849
v -0.465537 0.125000 1.123905
v -0.430519 0.216506 1.039364
v -0.382684 0.250000 0.923880
v -0.334848 0.216506 0.808395
v -0.299830 0.125000 0.723854
v -0.287013 0.000000 0.692910
v -0.299830 -0.125000 0.723854
v -0.334848 -0.216506 0.808395
v -0.382684 -0.250000 0.923880
v -0.430519 -0.216506 1.039364
v -0.465537 -0.125000 1.123905
v -0.323524 0.000000 1.207407
v -0.314855 0.125000 1.175055
v -0.291172 0.216506 1.086666
v -0.258819 0.250000 0.965926
v -0.226467 0.216506 0.845185
v -0.202783 0.125000 0.756797
v -0.194115 0.000000 0.724444
v -0.202783 -0.125000 0.756797
v -0.226467 -0.216506 0.845185
v -0.258819 -0.250000 0.965926
v -0.291172 -0.216506 1.086666
v -0.314855 -0.125000 1.175055
v -0.163158 0.000000 1.239306
v -0.158787 0.125000 1.206099
v -0.146843 0.216506 1.115375
v -0.130527 0.250000 0.991445
v -0.114211 0.216506 0.867514
v -0.102267 0.125000 0.776791
v -0.097895 0.000000 0.743584
v -0.102267 -0.125000 0.776791
v -0.114211 -0.216506 0.867514
v -0.130527 -0.250000 0.991445
v -0.146843 -0.216506 1.115375
v -0.158787 -0.125000 1.206099
v 0.000000 0.000000 1.250000
v 0.000000 0.125000 1.216506
v 0.000000 0.216506 1.125000
v 0.000000 0.250000 1.000000
v 0.000000 0.216506 0.875000
v 0.000000 0.125000 0.783494
v 0.000000 0.000000 0.750000
v 0.000000 -0.125000 0.783494
v 0.000000 -0.216506 0.875000
v 0.000000 -0.250000 1.000000
v 0.000000 -0.216506 1.125000
v 0.000000 -0.125000 1.216506
v 0.163158 0.000000 1.239306
v 0.158786 0.125000 1.206099
v 0.146842 0.216506 1.115376
v 0.130526 0.250000 0.991445
v 0.114210 0.216506 0.867514
v 0.102266 0.125000 0.776791
v 0.097895 0.000000 0.743584
v 0.102266 -0.125000 0.776791
v 0.114210 -0.216506 0.867514
v 0.130526 -0.250000 0.991445
v 0.146842 -0.216506 1.115376
v 0.158786 -0.125000 1.206099
v 0.323523 0.000000 1.207407
v 0.314854 0.125000 1.175055
v 0.291171 0.216506 1.086667
v 0.258819 0.250000 0.965926
v 0.226466 0.216506 0.845185
v 0.202783 0.125000 0.756797
v 0.194114 0.000000 0.724444
v 0.202783 -0.125000 0.756797
v 0.226466 -0.216506 0.845185
v 0.258819 -0.250000 0.965926
v 0.291171 -0.216506 1.086667
v 0.314854 -0.125000 1.175055
v 0.478355 0.000000 1.154849
v 0.465537 0.125000 1.123905
v 0.430519 0.216506 1.039364
v 0.382684 0.250000 0.923879
v 0.334848 0.216506 0.808394
v 0.299830 0.125000 0.723854
v 0.287013 0.000000 0.692910
v 0.299830 -0.125000 0.723854
v 0.334848 -0.216506 0.808394
v 0.382684 -0.250000 0.923879
v 0.430519 -0.216506 1.039364
v 0.465537 -0.125000 1.123905
v 0.625000 0.000000 1.082532
v 0.608253 0.125000 1.053525
v 0.562500 0.216506 0.974279
v 0.500000 0.250000 0.866025
v 0.437500 0.216506 0.757772
v 0.391747 0.125000 0.678525
v 0.375000 0.000000 0.649519
v 0.391747 -0.125000 0.678525
v 0.437500 -0.216506 0.757772
v 0.500000 -0.250000 0.866025
v 0.562500 -0.216506 0.974279
v 0.608253 -0.125000 1.053525
v 0.760952 0.000000 0.991692
v 0.740562 0.125000 0.965120
v 0.684856 0.216506 0.892523
v 0.608761 0.250000 0.793353
v 0.532666 0.216506 0.694184
v 0.476961 0.125000 0.621587
v 0.456571 0.000000 0.595015
v 0.476961 -0.125000 0.621587
v 0.532666 -0.216506 0.694184
v 0.608761 -0.250000 0.793353
v 0.684856 -0.216506 0.892523
v 0.740562 -0.125000 0.965120
v 0.883883 0.000000 0.883884
v 0.860199 0.125000 0.860200
v 0.795495 0.216506 0.795496
v 0.707106 0.250000 0.707107
v 0.618718 0.216506 0.618719
v 0.554013 0.125000 0.554014
v 0.530330 0.000000 0.530330
v 0.554013 -0.125000 0.554014
v 0.618718 -0.216506 0.618719
v 0.707106 -0.250000 0.707107
v 0.795495 -0.216506 0.795496
v 0.860199 -0.125000 0.860200
v 0.991692 0.000000 0.760952
v 0.965119 0.125000 0.740562
v 0.892523 0.216506 0.684856
v 0.793353 0.250000 0.608761
v 0.694184 0.216506 0.532666
v 0.621587 0.125000 0.476961
v 0.595015 0.000000 0.456571
v 0.621587 -0.125000 0.476961
v 0.694184 -0.216506 0.532666
v 0.793353 -0.250000 0.608761
v 0.892523 -0.216506 0.684856
v 0.965119 -0.125000 0.740562
v 1.082532 0.000000 0.625000
v 1.053525 0.125000 0.608253
v 0.974279 0.216506 0.562500
v 0.866025 0.250000 0.500000
v 0.757772 0.216506 0.437500
v 0.678525 0.125000 0.391747
v 0.649519 0.000000 0.375000
v 0.678525 -0.125000 0.391747
v 0.757772 -0.216506 0.437500
v 0.866025 -0.250000 0.500000
v 0.974279 -0.216506 0.562500
v 1.053525 -0.125000 0.608253
v 1.154849 0.000000 0.478355
v 1.123905 0.125000 0.465537
v 1.039364 0.216506 0.430519
v 0.923879 0.250000 0.382684
v 0.808394 0.216506 0.334848
v 0.723854 0.125000 0.299830
v 0.692910 0.000000 0.287013
v 0.723854 -0.125000 0.299830
v 0.808394 -0.216506 0.334848
v 0.923879 -0.250000 0.382684
v 1.039364 -0.216506 0.430519
v 1.123905 -0.125000 0.465537
v 1.207407 0.000000 0.323523
v 1.175055 0.125000 0.314855
v 1.086667 0.216506 0.291171
v 0.965926 0.250000 0.258819
v 0.845185 0.216506 0.226466
v 0.756797 0.125000 0.202783
v 0.724444 0.000000 0.194114
v 0.756797 -0.125000 0.202783
v 0.845185 -0.216506 0.226466
v 0.965926 -0.250000 0.258819
v 1.086667 -0.216506 0.291171
v 1.175055 -0.125000 0.314855
v 1.239306 0.000000 0.163158
v 1.206099 0.125000 0.158786
v 1.115376 0.216506 0.146842
v 0.991445 0.250000 0.130526
v 0.867514 0.216506 0.114210
v 0.776791 0.125000 0.102266
v 0.743584 0.000000 0.097895
v 0.776791 -0.125000 0.102266
v 0.867514 -0.216506 0.114210
v 0.991445 -0.250000 0.130526
v 1.115376 -0.216506 0.146842
v 1.206099 -0.125000 0.158786
vt 0.520833 0.500000
vt 0.500000 0.583333
vt 0.500000 0.500000
vt 0.520833 0.666667
vt 0.500000 0.666667
vt 0.500000 0.750000
vt 0.520833 0.750000
vt 0.500000 0.833333
vt 0.520833 0.833333
vt 0.500000 0.916667
vt 0.520833 1.000000
vt 0.500000 1.000000
vt 0.520833 0.000000
vt 0.500000 0.083333
vt 0.500000 0.000000
vt 0.520833 0.083333
vt 0.500000 0.166667
vt 0.520833 0.166667
vt 0.500000 0.250000
vt 0.520833 0.250000
vt 0.500000 0.333333
vt 0.520833 0.333333
vt 0.500000 0.416667
vt 0.520833 0.416667
vt 0.541667 0.500000
vt 0.520833 0.583333
vt 0.541667 0.583333
vt 0.541667 0.666667
vt 0.541667 0.750000
vt 0.541667 0.916667
vt 0.520833 0.916667
vt 0.541667 0.000000
vt 0.541667 0.083333
vt 0.541667 0.250000
vt 0.541667 0.333333
vt 0.541667 0.416667
vt 0.562500 0.583333
vt 0.562500 0.666667
vt 0.562500 0.833333
vt 0.541667 0.833333
vt 0.562500 0.916667
vt 0.562500 1.000000
vt 0.541667 1.000000
vt 0.562500 0.000000
vt 0.562500 0.083333
vt 0.541667 0.166667
vt 0.562500 0.250000
vt 0.562500 0.333333
vt 0.562500 0.416667
vt 0.562500 0.500000
vt 0.583333 0.583333
vt 0.583333 0.666667
vt 0.583333 0.750000
vt 0.562500 0.750000
vt 0.583333 0.916667
vt 0.583333 0.000000
vt 0.583333 0.083333
vt 0.562500 0.166667
vt 0.583333 0.250000
vt 0.583333 0.333333
vt 0.583333 0.416667
vt 0.604167 0.500000
vt 0.583333 0.500000
vt 0.604167 0.666667
vt 0.604167 0.750000
vt 0.583333 0.833333
vt 0.604167 0.916667
vt 0.583333 1.000000
vt 0.604167 0.000000
vt 0.604167 0.083333
vt 0.583333 0.166667
vt 0.604167 0.166667
vt 0.604167 0.250000
vt 0.604167 0.333333
vt 0.625000 0.500000
vt 0.604167 0.583333
vt 0.625000 0.583333
vt 0.625000 0.666667
vt 0.625000 0.750000
vt 0.604167 0.833333
vt 0.625000 0.833333
vt 0.625000 0.916667
vt 0.604167 1.000000
vt 0.625000 0.083333
vt 0.625000 0.166667
vt 0.625000 0.250000
vt 0.625000 0.416667
vt 0.604167 0.416667
vt 0.645833 0.500000
vt 0.645833 0.666667
vt 0.645833 0.750000
vt 0.645833 0.916667
vt 0.625000 1.000000
vt 0.645833 0.000000
vt 0.625000 0.000000
vt 0.645833 0.083333
vt 0.645833 0.250000
vt 0.645833 0.333333
vt 0.625000 0.333333
vt 0.645833 0.416667
vt 0.666667 0.500000
vt 0.645833 0.583333
vt 0.666667 0.666667
vt 0.666667 0.750000
vt 0.645833 0.833333
vt 0.666667 0.916667
vt 0.645833 1.000000
vt 0.666667 0.000000
vt 0.666667 0.083333
vt 0.645833 0.166667
vt 0.666667 0.166667
vt 0.666667 0.250000
vt 0.666667 0.333333
vt 0.666667 0.416667
vt 0.687500 0.583333
vt 0.666667 0.583333
vt 0.687500 0.666667
vt 0.687500 0.750000
vt 0.666667 0.833333
vt 0.687500 0.833333
vt 0.687500 0.916667
vt 0.666667 1.000000
vt 0.687500 0.000000
vt 0.687500 0.083333
vt 0.687500 0.250000
vt 0.687500 0.333333
vt 0.687500 0.416667
vt 0.708333 0.500000
vt 0.687500 0.500000
vt 0.708333 0.583333
vt 0.708333 0.666667
vt 0.708333 0.750000
vt 0.708333 0.916667
vt 0.687500 1.000000
vt 0.708333 0.000000
vt 0.708333 0.083333
vt 0.687500 0.166667
vt 0.708333 0.166667
vt 0.708333 0.250000
vt 0.708333 0.333333
vt 0.708333 0.416667
vt 0.729167 0.500000
vt 0.729167 0.583333
vt 0.729167 0.750000
vt 0.708333 0.833333
vt 0.729167 0.833333
vt 0.729167 0.916667
vt 0.708333 1.000000
vt 0.729167 0.083333
vt 0.729167 0.250000
vt 0.729167 0.333333
vt 0.729167 0.416667
vt 0.750000 0.500000
vt 0.750000 0.583333
vt 0.729167 0.666667
vt 0.750000 0.666667
vt 0.750000 0.833333
vt 0.750000 0.916667
vt 0.729167 1.000000
vt 0.750000 0.000000
vt 0.729167 0.000000
vt 0.750000 0.083333
vt 0.729167 0.166667
vt 0.750000 0.166667
vt 0.750000 0.250000
vt 0.750000 0.333333
vt 0.770833 0.500000
vt 0.770833 0.583333
vt 0.770833 0.666667
vt 0.750000 0.750000
vt 0.770833 0.750000
vt 0.770833 0.833333
vt 0.770833 0.916667
vt 0.750000 1.000000
vt 0.770833 0.083333
vt 0.770833 0.250000
vt 0.770833 0.333333
vt 0.770833 0.416667
vt 0.750000 0.416667
vt 0.791667 0.500000
vt 0.791667 0.666667
vt 0.791667 0.750000
vt 0.791667 0.833333
vt 0.791667 0.916667
vt 0.770833 1.000000
vt 0.791667 0.000000
vt 0.770833 0.000000
vt 0.791667 0.083333
vt 0.770833 0.166667
vt 0.791667 0.166667
vt 0.791667 0.250000
vt 0.791667 0.333333
vt 0.791667 0.416667
vt 0.812500 0.500000
vt 0.791667 0.583333
vt 0.812500 0.583333
vt 0.812500 0.666667
vt 0.812500 0.833333
vt 0.812500 0.916667
vt 0.791667 1.000000
vt 0.812500 0.000000
vt 0.812500 0.083333
vt 0.812500 0.250000
vt 0.812500 0.416667
vt 0.833333 0.500000
vt 0.833333 0.666667
vt 0.812500 0.750000
vt 0.833333 0.750000
vt 0.833333 0.833333
vt 0.833333 0.916667
vt 0.812500 1.000000
vt 0.833333 0.000000
vt 0.833333 0.083333
vt 0.812500 0.166667
vt 0.833333 0.166667
vt 0.833333 0.250000
vt 0.812500 0.333333
vt 0.833333 0.333333
vt 0.833333 0.416667
vt 0.854167 0.500000
vt 0.833333 0.583333
vt 0.854167 0.583333
vt 0.854167 0.666667
vt 0.854167 0.750000
vt 0.854167 0.833333
vt 0.854167 1.000000
vt 0.833333 1.000000
vt 0.854167 0.000000
vt 0.854167 0.166667
vt 0.854167 0.250000
vt 0.854167 0.333333
vt 0.854167 0.416667
vt 0.875000 0.500000
vt 0.875000 0.583333
vt 0.875000 0.750000
vt 0.875000 0.833333
vt 0.854167 0.916667
vt 0.875000 0.916667
vt 0.875000 0.000000
vt 0.854167 0.083333
vt 0.875000 0.166667
vt 0.875000 0.250000
vt 0.875000 0.333333
vt 0.875000 0.416667
vt 0.895833 0.500000
vt 0.895833 0.583333
vt 0.875000 0.666667
vt 0.895833 0.666667
vt 0.895833 0.833333
vt 0.895833 0.916667
vt 0.875000 1.000000
vt 0.895833 0.000000
vt 0.875000 0.083333
vt 0.895833 0.166667
vt 0.895833 0.250000
vt 0.895833 0.416667
vt 0.916667 0.583333
vt 0.916667 0.750000
vt 0.895833 0.750000
vt 0.916667 0.833333
vt 0.916667 0.916667
vt 0.895833 1.000000
vt 0.916667 0.000000
vt 0.895833 0.083333
vt 0.916667 0.083333
vt 0.916667 0.250000
vt 0.895833 0.333333
vt 0.916667 0.333333
vt 0.916667 0.416667
vt 0.937500 0.500000
vt 0.916667 0.500000
vt 0.937500 0.583333
vt 0.916667 0.666667
vt 0.937500 0.666667
vt 0.937500 0.833333
vt 0.937500 0.916667
vt 0.916667 1.000000
vt 0.937500 0.083333
vt 0.916667 0.166667
vt 0.937500 0.166667
vt 0.937500 0.250000
vt 0.937500 0.416667
vt 0.958333 0.583333
vt 0.958333 0.666667
vt 0.937500 0.750000
vt 0.958333 0.833333
vt 0.958333 0.916667
vt 0.937500 1.000000
vt 0.958333 0.000000
vt 0.937500 0.000000
vt 0.958333 0.083333
vt 0.958333 0.166667
vt 0.958333 0.333333
vt 0.937500 0.333333
vt 0.958333 0.416667
vt 0.979167 0.500000
vt 0.958333 0.500000
vt 0.979167 0.583333
vt 0.979167 0.666667
vt 0.958333 0.750000
vt 0.979167 0.750000
vt 0.979167 0.833333
vt 0.979167 0.916667
vt 0.958333 1.000000
vt 0.979167 0.000000
vt 0.979167 0.166667
vt 0.979167 0.250000
vt 0.958333 0.250000
vt 0.979167 0.333333
vt 0.979167 0.416667
vt 1.000000 0.583333
vt 1.000000 0.666667
vt 1.000000 0.750000
vt 1.000000 0.833333
vt 1.000000 0.916667
vt 0.979167 1.000000
vt 1.000000 0.000000
vt 0.979167 0.083333
vt 1.000000 0.166667
vt 1.000000 0.250000
vt 1.000000 0.333333
vt 1.000000 0.416667
vt 0.020833 0.500000
vt 0.000000 0.583333
vt 0.000000 0.500000
vt 0.020833 0.583333
vt 0.000000 0.666667
vt 0.020833 0.666667
vt 0.000000 0.750000
vt 0.020833 0.750000
vt 0.000000 0.833333
vt 0.020833 0.833333
vt 0.000000 0.916667
vt 0.020833 0.916667
vt 0.000000 1.000000
vt 0.000000 0.000000
vt 0.020833 0.083333
vt 0.000000 0.083333
vt 0.000000 0.166667
vt 0.020833 0.250000
vt 0.000000 0.250000
vt 0.020833 0.333333
vt 0.000000 0.333333
vt 0.020833 0.416667
vt 0.000000 0.416667
vt 0.041667 0.583333
vt 0.041667 0.666667
vt 0.041667 0.750000
vt 0.041667 0.833333
vt 0.041667 0.916667
vt 0.020833 1.000000
vt 0.041667 0.000000
vt 0.020833 0.000000
vt 0.041667 0.083333
vt 0.020833 0.166667
vt 0.041667 0.166667
vt 0.041667 0.250000
vt 0.041667 0.333333
vt 0.041667 0.500000
vt 0.062500 0.500000
vt 0.062500 0.583333
vt 0.062500 0.750000
vt 0.062500 0.833333
vt 0.062500 0.916667
vt 0.041667 1.000000
vt 0.062500 0.000000
vt 0.062500 0.166667
vt 0.062500 0.250000
vt 0.062500 0.416667
vt 0.041667 0.416667
vt 0.083333 0.500000
vt 0.083333 0.583333
vt 0.062500 0.666667
vt 0.083333 0.666667
vt 0.083333 0.750000
vt 0.083333 0.833333
vt 0.083333 1.000000
vt 0.062500 1.000000
vt 0.083333 0.000000
vt 0.062500 0.083333
vt 0.083333 0.083333
vt 0.083333 0.166667
vt 0.083333 0.333333
vt 0.062500 0.333333
vt 0.083333 0.416667
vt 0.104167 0.500000
vt 0.104167 0.583333
vt 0.104167 0.666667
vt 0.104167 0.833333
vt 0.083333 0.916667
vt 0.104167 0.916667
vt 0.104167 0.000000
vt 0.104167 0.166667
vt 0.083333 0.250000
vt 0.104167 0.250000
vt 0.104167 0.416667
vt 0.125000 0.500000
vt 0.125000 0.666667
vt 0.104167 0.750000
vt 0.125000 0.750000
vt 0.125000 0.833333
vt 0.125000 0.916667
vt 0.104167 1.000000
vt 0.125000 0.000000
vt 0.104167 0.083333
vt 0.125000 0.083333
vt 0.125000 0.250000
vt 0.104167 0.333333
vt 0.125000 0.333333
vt 0.125000 0.416667
vt 0.145833 0.583333
vt 0.125000 0.583333
vt 0.145833 0.666667
vt 0.145833 0.833333
vt 0.145833 0.916667
vt 0.125000 1.000000
vt 0.145833 0.000000
vt 0.145833 0.083333
vt 0.125000 0.166667
vt 0.145833 0.166667
vt 0.145833 0.250000
vt 0.145833 0.333333
vt 0.145833 0.416667
vt 0.145833 0.500000
vt 0.166667 0.583333
vt 0.166667 0.666667
vt 0.145833 0.750000
vt 0.166667 0.750000
vt 0.166667 0.916667
vt 0.145833 1.000000
vt 0.166667 0.000000
vt 0.166667 0.083333
vt 0.166667 0.166667
vt 0.166667 0.333333
vt 0.166667 0.416667
vt 0.187500 0.500000
vt 0.166667 0.500000
vt 0.187500 0.583333
vt 0.187500 0.666667
vt 0.187500 0.750000
vt 0.166667 0.833333
vt 0.187500 0.833333
vt 0.187500 0.916667
vt 0.166667 1.000000
vt 0.187500 0.000000
vt 0.187500 0.083333
vt 0.187500 0.250000
vt 0.166667 0.250000
vt 0.187500 0.416667
vt 0.208333 0.500000
vt 0.208333 0.583333
vt 0.208333 0.666667
vt 0.208333 0.750000
vt 0.208333 0.916667
vt 0.187500 1.000000
vt 0.208333 0.000000
vt 0.208333 0.083333
vt 0.187500 0.166667
vt 0.208333 0.166667
vt 0.208333 0.250000
vt 0.187500 0.333333
vt 0.208333 0.416667
vt 0.229167 0.500000
vt 0.229167 0.666667
vt 0.229167 0.750000
vt 0.208333 0.833333
vt 0.229167 0.916667
vt 0.208333 1.000000
vt 0.229167 0.000000
vt 0.229167 0.083333
vt 0.229167 0.250000
vt 0.208333 0.333333
vt 0.229167 0.333333
vt 0.229167 0.416667
vt 0.250000 0.500000
vt 0.229167 0.583333
vt 0.250000 0.583333
vt 0.250000 0.750000
vt 0.250000 0.833333
vt 0.229167 0.833333
vt 0.250000 1.000000
vt 0.229167 1.000000
vt 0.250000 0.000000
vt 0.250000 0.083333
vt 0.229167 0.166667
vt 0.250000 0.166667
vt 0.250000 0.250000
vt 0.250000 0.333333
vt 0.250000 0.416667
vt 0.270833 0.583333
vt 0.250000 0.666667
vt 0.270833 0.666667
vt 0.270833 0.750000
vt 0.270833 0.833333
vt 0.250000 0.916667
vt 0.270833 0.916667
vt 0.270833 0.000000
vt 0.270833 0.166667
vt 0.270833 0.250000
vt 0.270833 0.333333
vt 0.270833 0.416667
vt 0.291667 0.500000
vt 0.270833 0.500000
vt 0.291667 0.583333
vt 0.291667 0.666667
vt 0.291667 0.750000
vt 0.291667 0.833333
vt 0.291667 1.000000
vt 0.270833 1.000000
vt 0.291667 0.000000
vt 0.270833 0.083333
vt 0.291667 0.083333
vt 0.291667 0.250000
vt 0.291667 0.333333
vt 0.291667 0.416667
vt 0.312500 0.500000
vt 0.312500 0.583333
vt 0.312500 0.666667
vt 0.312500 0.750000
vt 0.312500 0.833333
vt 0.291667 0.916667
vt 0.312500 0.916667
vt 0.312500 0.000000
vt 0.312500 0.083333
vt 0.291667 0.166667
vt 0.312500 0.166667
vt 0.312500 0.333333
vt 0.312500 0.416667
vt 0.333333 0.500000
vt 0.333333 0.583333
vt 0.333333 0.750000
vt 0.333333 0.833333
vt 0.333333 0.916667
vt 0.312500 1.000000
vt 0.333333 0.000000
vt 0.333333 0.083333
vt 0.333333 0.166667
vt 0.312500 0.250000
vt 0.333333 0.250000
vt 0.333333 0.333333
vt 0.354167 0.583333
vt 0.333333 0.666667
vt 0.354167 0.666667
vt 0.354167 0.750000
vt 0.354167 0.833333
vt 0.354167 0.916667
vt 0.333333 1.000000
vt 0.354167 0.000000
vt 0.354167 0.083333
vt 0.354167 0.166667
vt 0.354167 0.250000
vt 0.354167 0.416667
vt 0.333333 0.416667
vt 0.354167 0.500000
vt 0.375000 0.583333
vt 0.375000 0.750000
vt 0.375000 0.833333
vt 0.375000 0.916667
vt 0.354167 1.000000
vt 0.375000 0.000000
vt 0.375000 0.083333
vt 0.375000 0.166667
vt 0.375000 0.250000
vt 0.354167 0.333333
vt 0.375000 0.416667
vt 0.375000 0.500000
vt 0.395833 0.583333
vt 0.375000 0.666667
vt 0.395833 0.750000
vt 0.395833 0.833333
vt 0.395833 0.916667
vt 0.375000 1.000000
vt 0.395833 0.000000
vt 0.395833 0.166667
vt 0.395833 0.250000
vt 0.375000 0.333333
vt 0.395833 0.333333
vt 0.395833 0.416667
vt 0.416667 0.500000
vt 0.395833 0.500000
vt 0.416667 0.583333
vt 0.395833 0.666667
vt 0.416667 0.666667
vt 0.416667 0.750000
vt 0.416667 0.833333
vt 0.416667 0.916667
vt 0.395833 1.000000
vt 0.416667 0.000000
vt 0.395833 0.083333
vt 0.416667 0.166667
vt 0.416667 0.250000
vt 0.416667 0.416667
vt 0.437500 0.500000
vt 0.437500 0.583333
vt 0.437500 0.750000
vt 0.437500 0.833333
vt 0.437500 0.916667
vt 0.416667 1.000000
vt 0.437500 0.000000
vt 0.416667 0.083333
vt 0.437500 0.083333
vt 0.437500 0.166667
vt 0.437500 0.250000
vt 0.416667 0.333333
vt 0.437500 0.333333
vt 0.437500 0.416667
vt 0.458333 0.500000
vt 0.458333 0.583333
vt 0.437500 0.666667
vt 0.458333 0.666667
vt 0.458333 0.750000
vt 0.458333 0.833333
vt 0.458333 0.916667
vt 0.437500 1.000000
vt 0.458333 0.000000
vt 0.458333 0.166667
vt 0.458333 0.250000
vt 0.458333 0.333333
vt 0.458333 0.416667
vt 0.479167 0.583333
vt 0.479167 0.666667
vt 0.479167 0.750000
vt 0.479167 0.833333
vt 0.479167 1.000000
vt 0.458333 1.000000
vt 0.479167 0.000000
vt 0.458333 0.083333
vt 0.479167 0.083333
vt 0.479167 0.250000
vt 0.479167 0.333333
vt 0.479167 0.416667
vt 0.479167 0.500000
vt 0.479167 0.916667
vt 0.479167 0.166667
vt 1.000000 0.500000
vt 1.000000 1.000000
vt 1.000000 0.083333
vn 0.9914 0.0000 -0.1305
vn 0.8686 0.4954 0.0000
vn 1.0000 0.0000 0.0000
vn 0.5036 0.8614 -0.0663
vn 0.5080 0.8614 0.0000
vn 0.0108 0.9999 0.0000
vn 0.0107 0.9999 -0.0014
vn -0.4918 0.8707 0.0000
vn -0.4876 0.8707 0.0642
vn -0.8633 0.5047 0.0000
vn -0.9914 0.0000 0.1305
vn -1.0000 0.0000 0.0000
vn -0.8633 -0.5047 0.0000
vn -0.8559 -0.5047 0.1127
vn -0.4918 -0.8707 0.0000
vn -0.4876 -0.8707 0.0642
vn 0.0108 -0.9999 0.0000
vn 0.0107 -0.9999 -0.0014
vn 0.5080 -0.8614 0.0000
vn 0.5036 -0.8614 -0.0663
vn 0.8686 -0.4954 0.0000
vn 0.8612 -0.4954 -0.1134
vn 0.9659 0.0000 -0.2588
vn 0.8612 0.4954 -0.1134
vn 0.8390 0.4954 -0.2248
vn 0.4907 0.8614 -0.1315
vn 0.0104 0.9999 -0.0028
vn -0.8339 0.5047 0.2234
vn -0.8559 0.5047 0.1127
vn -0.9659 0.0000 0.2588
vn -0.8339 -0.5047 0.2234
vn 0.0104 -0.9999 -0.0028
vn 0.4907 -0.8614 -0.1315
vn 0.8390 -0.4954 -0.2248
vn 0.8025 0.4954 -0.3324
vn 0.4693 0.8614 -0.1944
vn -0.4544 0.8707 0.1882
vn -0.4751 0.8707 0.1273
vn -0.7975 0.5047 0.3304
vn -0.9239 0.0000 0.3827
vn -0.7975 -0.5047 0.3304
vn -0.4751 -0.8707 0.1273
vn 0.0099 -0.9999 -0.0041
vn 0.4693 -0.8614 -0.1944
vn 0.8025 -0.4954 -0.3324
vn 0.9239 0.0000 -0.3827
vn 0.7523 0.4954 -0.4343
vn 0.4399 0.8614 -0.2540
vn 0.0093 0.9999 -0.0054
vn 0.0099 0.9999 -0.0041
vn -0.7476 0.5047 0.4316
vn -0.8660 0.0000 0.5000
vn -0.7476 -0.5047 0.4316
vn -0.4544 -0.8707 0.1882
vn 0.0093 -0.9999 -0.0054
vn 0.4399 -0.8614 -0.2540
vn 0.7523 -0.4954 -0.4343
vn 0.7933 0.0000 -0.6088
vn 0.8660 0.0000 -0.5000
vn 0.4030 0.8614 -0.3092
vn 0.0085 0.9999 -0.0066
vn -0.4259 0.8707 0.2459
vn -0.6849 0.5047 0.5255
vn -0.7933 0.0000 0.6088
vn -0.6849 -0.5047 0.5255
vn -0.4259 -0.8707 0.2459
vn -0.3902 -0.8707 0.2994
vn 0.0085 -0.9999 -0.0066
vn 0.4030 -0.8614 -0.3092
vn 0.7071 0.0000 -0.7071
vn 0.6891 0.4954 -0.5288
vn 0.6142 0.4954 -0.6142
vn 0.3592 0.8614 -0.3592
vn 0.0076 0.9999 -0.0076
vn -0.3902 0.8707 0.2994
vn -0.3478 0.8707 0.3478
vn -0.6104 0.5047 0.6104
vn -0.6104 -0.5047 0.6104
vn -0.3478 -0.8707 0.3478
vn 0.0076 -0.9999 -0.0076
vn 0.6142 -0.4954 -0.6142
vn 0.6891 -0.4954 -0.5288
vn 0.6088 0.0000 -0.7933
vn 0.3092 0.8614 -0.4030
vn 0.0066 0.9999 -0.0085
vn -0.5255 0.5047 0.6849
vn -0.7071 0.0000 0.7071
vn -0.6088 0.0000 0.7933
vn -0.5255 -0.5047 0.6849
vn 0.0066 -0.9999 -0.0085
vn 0.3092 -0.8614 -0.4030
vn 0.3592 -0.8614 -0.3592
vn 0.5288 -0.4954 -0.6891
vn 0.5000 0.0000 -0.8660
vn 0.5288 0.4954 -0.6891
vn 0.2540 0.8614 -0.4399
vn 0.0054 0.9999 -0.0093
vn -0.2994 0.8707 0.3902
vn -0.4316 0.5047 0.7476
vn -0.5000 0.0000 0.8660
vn -0.4316 -0.5047 0.7476
vn -0.2994 -0.8707 0.3902
vn -0.2459 -0.8707 0.4259
vn 0.0054 -0.9999 -0.0093
vn 0.2540 -0.8614 -0.4399
vn 0.4343 -0.4954 -0.7523
vn 0.3324 0.4954 -0.8025
vn 0.4343 0.4954 -0.7523
vn 0.1944 0.8614 -0.4693
vn 0.0041 0.9999 -0.0099
vn -0.2459 0.8707 0.4259
vn -0.1882 0.8707 0.4544
vn -0.3304 0.5047 0.7975
vn -0.3827 0.0000 0.9239
vn -0.3304 -0.5047 0.7975
vn 0.0041 -0.9999 -0.0099
vn 0.1944 -0.8614 -0.4693
vn 0.3324 -0.4954 -0.8025
vn 0.2588 0.0000 -0.9659
vn 0.3827 0.0000 -0.9239
vn 0.2248 0.4954 -0.8390
vn 0.1315 0.8614 -0.4907
vn 0.0028 0.9999 -0.0104
vn -0.2234 0.5047 0.8339
vn -0.2588 0.0000 0.9659
vn -0.2234 -0.5047 0.8339
vn -0.1882 -0.8707 0.4544
vn -0.1273 -0.8707 0.4751
vn 0.0028 -0.9999 -0.0104
vn 0.1315 -0.8614 -0.4907
vn 0.2248 -0.4954 -0.8390
vn 0.1305 0.0000 -0.9914
vn 0.1134 0.4954 -0.8612
vn 0.0014 0.9999 -0.0107
vn -0.1273 0.8707 0.4751
vn -0.0642 0.8707 0.4876
vn -0.1127 0.5047 0.8559
vn -0.1127 -0.5047 0.8559
vn 0.0014 -0.9999 -0.0107
vn 0.0663 -0.8614 -0.5036
vn 0.1134 -0.4954 -0.8612
vn 0.0000 0.0000 -1.0000
vn 0.0000 0.4954 -0.8686
vn 0.0663 0.8614 -0.5036
vn 0.0000 0.8614 -0.5080
vn 0.0000 0.8707 0.4918
vn 0.0000 0.5047 0.8633
vn -0.1305 0.0000 0.9914
vn 0.0000 0.0000 1.0000
vn 0.0000 -0.5047 0.8633
vn -0.0642 -0.8707 0.4876
vn 0.0000 -0.8707 0.4918
vn 0.0000 -0.9999 -0.0108
vn 0.0000 -0.8614 -0.5080
vn -0.1305 0.0000 -0.9914
vn -0.1134 0.4954 -0.8612
vn -0.0663 0.8614 -0.5036
vn 0.0000 0.9999 -0.0108
vn -0.0014 0.9999 -0.0107
vn 0.0642 0.8707 0.4876
vn 0.1127 0.5047 0.8559
vn 0.1127 -0.5047 0.8559
vn -0.0014 -0.9999 -0.0107
vn -0.0663 -0.8614 -0.5036
vn -0.1134 -0.4954 -0.8612
vn 0.0000 -0.4954 -0.8686
vn -0.2588 0.0000 -0.9659
vn -0.1315 0.8614 -0.4907
vn -0.0028 0.9999 -0.0104
vn 0.1273 0.8707 0.4751
vn 0.2234 0.5047 0.8339
vn 0.1305 0.0000 0.9914
vn 0.2588 0.0000 0.9659
vn 0.2234 -0.5047 0.8339
vn 0.0642 -0.8707 0.4876
vn 0.1273 -0.8707 0.4751
vn -0.0028 -0.9999 -0.0104
vn -0.1315 -0.8614 -0.4907
vn -0.2248 -0.4954 -0.8390
vn -0.3827 0.0000 -0.9239
vn -0.2248 0.4954 -0.8390
vn -0.3324 0.4954 -0.8025
vn -0.1944 0.8614 -0.4693
vn 0.1882 0.8707 0.4544
vn 0.3304 0.5047 0.7975
vn 0.3827 0.0000 0.9239
vn 0.3303 -0.5047 0.7975
vn -0.0041 -0.9999 -0.0099
vn -0.3324 -0.4954 -0.8025
vn -0.5000 0.0000 -0.8660
vn -0.2540 0.8614 -0.4399
vn -0.0041 0.9999 -0.0099
vn -0.0054 0.9999 -0.0093
vn 0.2459 0.8707 0.4259
vn 0.4316 0.5047 0.7476
vn 0.5000 0.0000 0.8660
vn 0.4316 -0.5047 0.7476
vn 0.1882 -0.8707 0.4544
vn 0.2459 -0.8707 0.4259
vn -0.0054 -0.9999 -0.0093
vn -0.1944 -0.8614 -0.4693
vn -0.2540 -0.8614 -0.4399
vn -0.4343 -0.4954 -0.7523
vn -0.6088 0.0000 -0.7933
vn -0.4343 0.4954 -0.7523
vn -0.5288 0.4954 -0.6891
vn -0.3092 0.8614 -0.4030
vn -0.0066 0.9999 -0.0085
vn 0.2994 0.8707 0.3902
vn 0.6088 0.0000 0.7933
vn 0.2994 -0.8707 0.3902
vn -0.0066 -0.9999 -0.0085
vn -0.3092 -0.8614 -0.4030
vn -0.5288 -0.4954 -0.6891
vn -0.7071 0.0000 -0.7071
vn -0.6142 0.4954 -0.6142
vn -0.0076 0.9999 -0.0076
vn 0.3478 0.8707 0.3478
vn 0.5255 0.5047 0.6849
vn 0.6104 0.5047 0.6104
vn 0.7071 0.0000 0.7071
vn 0.5255 -0.5047 0.6849
vn 0.3478 -0.8707 0.3478
vn -0.0076 -0.9999 -0.0076
vn -0.3592 -0.8614 -0.3592
vn -0.6142 -0.4954 -0.6142
vn -0.7933 0.0000 -0.6088
vn -0.6891 0.4954 -0.5288
vn -0.3592 0.8614 -0.3592
vn -0.4030 0.8614 -0.3092
vn 0.3902 0.8707 0.2994
vn 0.6849 0.5047 0.5255
vn 0.7933 0.0000 0.6088
vn 0.6104 -0.5047 0.6104
vn 0.3902 -0.8707 0.2994
vn -0.0085 -0.9999 -0.0066
vn -0.6891 -0.4954 -0.5288
vn -0.7523 0.4954 -0.4343
vn -0.0093 0.9999 -0.0054
vn -0.0085 0.9999 -0.0066
vn 0.4259 0.8707 0.2459
vn 0.7476 0.5047 0.4316
vn 0.8660 0.0000 0.5000
vn 0.6849 -0.5047 0.5255
vn 0.7476 -0.5047 0.4316
vn -0.0093 -0.9999 -0.0054
vn -0.4030 -0.8614 -0.3092
vn -0.4399 -0.8614 -0.2540
vn -0.7523 -0.4954 -0.4343
vn -0.9239 0.0000 -0.3827
vn -0.8660 0.0000 -0.5000
vn -0.8025 0.4954 -0.3324
vn -0.4399 0.8614 -0.2540
vn -0.4693 0.8614 -0.1944
vn 0.4544 0.8707 0.1882
vn 0.7975 0.5047 0.3304
vn 0.7975 -0.5047 0.3304
vn 0.4259 -0.8707 0.2459
vn 0.4544 -0.8707 0.1882
vn -0.0099 -0.9999 -0.0041
vn -0.8025 -0.4954 -0.3324
vn -0.8390 0.4954 -0.2248
vn -0.4907 0.8614 -0.1315
vn -0.0099 0.9999 -0.0041
vn 0.4751 0.8707 0.1273
vn 0.8339 0.5047 0.2234
vn 0.9239 0.0000 0.3827
vn 0.9659 0.0000 0.2588
vn 0.8339 -0.5047 0.2234
vn 0.4751 -0.8707 0.1273
vn -0.4907 -0.8614 -0.1315
vn -0.4693 -0.8614 -0.1944
vn -0.8390 -0.4954 -0.2248
vn -0.9914 0.0000 -0.1305
vn -0.9659 0.0000 -0.2588
vn -0.8612 0.4954 -0.1134
vn -0.5036 0.8614 -0.0663
vn -0.0104 0.9999 -0.0028
vn -0.0107 0.9999 -0.0014
vn 0.4876 0.8707 0.0642
vn 0.8559 0.5047 0.1127
vn 0.9914 0.0000 0.1305
vn 0.4876 -0.8707 0.0642
vn -0.0107 -0.9999 -0.0014
vn -0.0104 -0.9999 -0.0028
vn -0.5036 -0.8614 -0.0663
vn -0.8612 -0.4954 -0.1134
vn -0.8686 0.4954 0.0000
vn -0.5080 0.8614 0.0000
vn -0.0108 0.9999 0.0000
vn 0.4918 0.8707 0.0000
vn 0.8633 0.5047 0.0000
vn 0.8559 -0.5047 0.1127
vn 0.4918 -0.8707 0.0000
vn -0.0108 -0.9999 0.0000
vn -0.5080 -0.8614 0.0000
vn -0.8686 -0.4954 0.0000
vn -0.8612 0.4954 0.1134
vn -0.5036 0.8614 0.0663
vn -0.0107 0.9999 0.0014
vn 0.4876 0.8707 -0.0642
vn 0.8559 0.5047 -0.1127
vn 0.8559 -0.5047 -0.1127
vn 0.8633 -0.5047 0.0000
vn -0.0107 -0.9999 0.0014
vn -0.5036 -0.8614 0.0663
vn -0.8612 -0.4954 0.1134
vn -0.8390 0.4954 0.2248
vn -0.4907 0.8614 0.1315
vn -0.0104 0.9999 0.0028
vn 0.4751 0.8707 -0.1273
vn 0.8339 0.5047 -0.2234
vn 0.8339 -0.5047 -0.2234
vn 0.4876 -0.8707 -0.0642
vn 0.4751 -0.8707 -0.1273
vn -0.0104 -0.9999 0.0028
vn -0.4907 -0.8614 0.1315
vn -0.8025 0.4954 0.3324
vn -0.0099 0.9999 0.0041
vn 0.4544 0.8707 -0.1882
vn 0.7975 0.5047 -0.3304
vn 0.4544 -0.8707 -0.1882
vn -0.0099 -0.9999 0.0041
vn -0.8025 -0.4954 0.3324
vn -0.8390 -0.4954 0.2248
vn -0.7523 0.4954 0.4343
vn -0.4693 0.8614 0.1944
vn -0.4399 0.8614 0.2540
vn -0.0093 0.9999 0.0054
vn 0.4259 0.8707 -0.2459
vn 0.7975 -0.5047 -0.3304
vn 0.7476 -0.5047 -0.4316
vn 0.4259 -0.8707 -0.2459
vn -0.4399 -0.8614 0.2540
vn -0.4693 -0.8614 0.1944
vn -0.7523 -0.4954 0.4343
vn -0.6891 0.4954 0.5288
vn -0.4030 0.8614 0.3092
vn 0.3902 0.8707 -0.2994
vn 0.7476 0.5047 -0.4316
vn 0.6849 0.5047 -0.5255
vn 0.3902 -0.8707 -0.2994
vn -0.0093 -0.9999 0.0054
vn -0.0085 -0.9999 0.0066
vn -0.6891 -0.4954 0.5288
vn -0.3592 0.8614 0.3592
vn -0.0085 0.9999 0.0066
vn -0.0076 0.9999 0.0076
vn 0.3478 0.8707 -0.3478
vn 0.6104 0.5047 -0.6104
vn 0.6849 -0.5047 -0.5255
vn 0.6104 -0.5047 -0.6104
vn -0.0076 -0.9999 0.0076
vn -0.4030 -0.8614 0.3092
vn -0.3592 -0.8614 0.3592
vn -0.6142 -0.4954 0.6142
vn -0.5288 0.4954 0.6891
vn -0.6142 0.4954 0.6142
vn -0.3092 0.8614 0.4030
vn 0.2994 0.8707 -0.3902
vn 0.5255 0.5047 -0.6849
vn 0.5255 -0.5047 -0.6849
vn 0.3478 -0.8707 -0.3478
vn 0.2994 -0.8707 -0.3902
vn -0.0066 -0.9999 0.0085
vn -0.3092 -0.8614 0.4030
vn -0.5288 -0.4954 0.6891
vn -0.4343 0.4954 0.7523
vn -0.2540 0.8614 0.4399
vn -0.0066 0.9999 0.0085
vn -0.0054 0.9999 0.0093
vn 0.4316 0.5047 -0.7476
vn 0.4316 -0.5047 -0.7476
vn 0.2459 -0.8707 -0.4259
vn -0.2540 -0.8614 0.4399
vn -0.4343 -0.4954 0.7523
vn -0.3324 0.4954 0.8025
vn -0.1944 0.8614 0.4693
vn -0.0041 0.9999 0.0099
vn 0.2459 0.8707 -0.4259
vn 0.1882 0.8707 -0.4544
vn 0.3304 0.5047 -0.7975
vn 0.3304 -0.5047 -0.7975
vn -0.0041 -0.9999 0.0099
vn -0.0054 -0.9999 0.0093
vn -0.3324 -0.4954 0.8025
vn -0.2248 0.4954 0.8390
vn -0.1315 0.8614 0.4907
vn -0.0028 0.9999 0.0104
vn 0.2234 0.5047 -0.8339
vn 0.2234 -0.5047 -0.8339
vn 0.1882 -0.8707 -0.4544
vn 0.1273 -0.8707 -0.4751
vn -0.0028 -0.9999 0.0104
vn -0.1944 -0.8614 0.4693
vn -0.2248 -0.4954 0.8390
vn -0.0663 0.8614 0.5036
vn -0.0014 0.9999 0.0107
vn 0.1273 0.8707 -0.4751
vn 0.1127 0.5047 -0.8559
vn 0.1127 -0.5047 -0.8559
vn -0.0014 -0.9999 0.0107
vn -0.1315 -0.8614 0.4907
vn -0.0663 -0.8614 0.5036
vn -0.1134 -0.4954 0.8612
vn -0.1134 0.4954 0.8612
vn 0.0000 0.4954 0.8686
vn 0.0000 0.9999 0.0108
vn 0.0000 0.8707 -0.4918
vn 0.0642 0.8707 -0.4876
vn 0.0000 -0.5047 -0.8633
vn 0.0642 -0.8707 -0.4876
vn 0.0000 -0.8707 -0.4918
vn 0.0000 -0.9999 0.0108
vn 0.0000 -0.8614 0.5080
vn 0.0000 -0.4954 0.8686
vn 0.1134 0.4954 0.8612
vn 0.0000 0.8614 0.5080
vn 0.0663 0.8614 0.5036
vn 0.0014 0.9999 0.0107
vn -0.0642 0.8707 -0.4876
vn 0.0000 0.5047 -0.8633
vn -0.1127 0.5047 -0.8559
vn -0.0642 -0.8707 -0.4876
vn 0.0014 -0.9999 0.0107
vn 0.0663 -0.8614 0.5036
vn 0.1134 -0.4954 0.8612
vn 0.2248 0.4954 0.8390
vn 0.1315 0.8614 0.4907
vn 0.0028 0.9999 0.0104
vn -0.1273 0.8707 -0.4751
vn -0.1127 -0.5047 -0.8559
vn -0.2234 -0.5047 -0.8339
vn 0.0028 -0.9999 0.0104
vn 0.1315 -0.8614 0.4907
vn 0.2248 -0.4954 0.8390
vn 0.3324 0.4954 0.8025
vn 0.1944 0.8614 0.4693
vn 0.0041 0.9999 0.0099
vn -0.1882 0.8707 -0.4544
vn -0.2234 0.5047 -0.8339
vn -0.3304 0.5047 -0.7975
vn -0.3304 -0.5047 -0.7975
vn -0.1273 -0.8707 -0.4751
vn -0.1882 -0.8707 -0.4544
vn 0.1944 -0.8614 0.4693
vn 0.3324 -0.4954 0.8025
vn 0.4343 0.4954 0.7523
vn 0.0054 0.9999 0.0093
vn -0.2459 0.8707 -0.4259
vn -0.4316 0.5047 -0.7476
vn -0.4316 -0.5047 -0.7476
vn -0.2459 -0.8707 -0.4259
vn 0.0041 -0.9999 0.0099
vn 0.0054 -0.9999 0.0093
vn 0.2540 -0.8614 0.4399
vn 0.5288 0.4954 0.6891
vn 0.2540 0.8614 0.4399
vn 0.3092 0.8614 0.4030
vn 0.0066 0.9999 0.0085
vn -0.2994 0.8707 -0.3902
vn -0.5255 0.5047 -0.6849
vn -0.5255 -0.5047 -0.6849
vn -0.2994 -0.8707 -0.3902
vn 0.0066 -0.9999 0.0085
vn 0.5288 -0.4954 0.6891
vn 0.4343 -0.4954 0.7523
vn 0.6142 0.4954 0.6142
vn 0.0076 0.9999 0.0076
vn -0.3478 0.8707 -0.3478
vn -0.6104 0.5047 -0.6104
vn -0.6104 -0.5047 -0.6104
vn -0.3478 -0.8707 -0.3478
vn 0.0076 -0.9999 0.0076
vn 0.3092 -0.8614 0.4030
vn 0.6142 -0.4954 0.6142
vn 0.6891 0.4954 0.5288
vn 0.3592 0.8614 0.3592
vn 0.0085 0.9999 0.0066
vn -0.3902 0.8707 -0.2994
vn -0.6849 0.5047 -0.5255
vn -0.3902 -0.8707 -0.2994
vn 0.0085 -0.9999 0.0066
vn 0.3592 -0.8614 0.3592
vn 0.4030 -0.8614 0.3092
vn 0.6891 -0.4954 0.5288
vn 0.7523 0.4954 0.4343
vn 0.4030 0.8614 0.3092
vn 0.4399 0.8614 0.2540
vn 0.0093 0.9999 0.0054
vn -0.4259 0.8707 -0.2459
vn -0.7476 0.5047 -0.4316
vn -0.6849 -0.5047 -0.5255
vn -0.4259 -0.8707 -0.2459
vn 0.0093 -0.9999 0.0054
vn 0.7523 -0.4954 0.4343
vn 0.8025 0.4954 0.3324
vn 0.0099 0.9999 0.0041
vn -0.4544 0.8707 -0.1882
vn -0.7975 0.5047 -0.3304
vn -0.7476 -0.5047 -0.4316
vn -0.7975 -0.5047 -0.3304
vn -0.4544 -0.8707 -0.1882
vn 0.0099 -0.9999 0.0041
vn 0.4399 -0.8614 0.2540
vn 0.4693 -0.8614 0.1944
vn 0.8025 -0.4954 0.3324
vn 0.8390 0.4954 0.2248
vn 0.4693 0.8614 0.1944
vn 0.4907 0.8614 0.1315
vn 0.0104 0.9999 0.0028
vn -0.4751 0.8707 -0.1273
vn -0.8339 0.5047 -0.2234
vn -0.4751 -0.8707 -0.1273
vn 0.0104 -0.9999 0.0028
vn 0.4907 -0.8614 0.1315
vn 0.8390 -0.4954 0.2248
vn 0.8612 0.4954 0.1134
vn 0.5036 0.8614 0.0663
vn 0.0107 0.9999 0.0014
vn -0.4876 0.8707 -0.0642
vn -0.8339 -0.5047 -0.2234
vn -0.8559 -0.5047 -0.1127
vn 0.0107 -0.9999 0.0014
vn 0.5036 -0.8614 0.0663
vn 0.8612 -0.4954 0.1134
vn -0.8559 0.5047 -0.1127
vn -0.4876 -0.8707 -0.0642
s 1
f 13/1/1 2/2/2 1/3/3
f 2/2/2 15/4/4 3/5/5
f 15/4/4 4/6/6 3/5/5
f 16/7/7 5/8/8 4/6/6
f 17/9/9 6/10/10 5/8/8
f 6/10/10 19/11/11 7/12/12
f 19/13/11 8/14/13 7/15/12
f 20/16/14 9/17/15 8/14/13
f 21/18/16 10/19/17 9/17/15
f 22/20/18 11/21/19 10/19/17
f 23/22/20 12/23/21 11/21/19
f 24/24/22 1/3/3 12/23/21
f 25/25/23 14/26/24 13/1/1
f 26/27/25 15/4/4 14/26/24
f 27/28/26 16/7/7 15/4/4
f 28/29/27 17/9/9 16/7/7
f 17/9/9 30/30/28 18/31/29
f 30/30/28 19/11/11 18/31/29
f 31/32/30 20/16/14 19/13/11
f 32/33/31 21/18/16 20/16/14
f 21/18/16 34/34/32 22/20/18
f 22/20/18 35/35/33 23/22/20
f 23/22/20 36/36/34 24/24/22
f 36/36/34 13/1/1 24/24/22
f 25/25/23 38/37/35 26/27/25
f 38/37/35 27/28/26 26/27/25
f 39/38/36 28/29/27 27/28/26
f 28/29/27 41/39/37 29/40/38
f 29/40/38 42/41/39 30/30/28
f 30/30/28 43/42/40 31/43/30
f 43/44/40 32/33/31 31/32/30
f 44/45/41 33/46/42 32/33/31
f 33/46/42 46/47/43 34/34/32
f 34/34/32 47/48/44 35/35/33
f 35/35/33 48/49/45 36/36/34
f 48/49/45 25/25/23 36/36/34
f 37/50/46 50/51/47 38/37/35
f 38/37/35 51/52/48 39/38/36
f 39/38/36 52/53/49 40/54/50
f 52/53/49 41/39/37 40/54/50
f 41/39/37 54/55/51 42/41/39
f 54/55/51 43/42/40 42/41/39
f 55/56/52 44/45/41 43/44/40
f 56/57/53 45/58/54 44/45/41
f 45/58/54 58/59/55 46/47/43
f 58/59/55 47/48/44 46/47/43
f 59/60/56 48/49/45 47/48/44
f 60/61/57 37/50/46 48/49/45
f 61/62/58 50/51/47 49/63/59
f 50/51/47 63/64/60 51/52/48
f 63/64/60 52/53/49 51/52/48
f 64/65/61 53/66/62 52/53/49
f 53/66/62 66/67/63 54/55/51
f 66/67/63 55/68/52 54/55/51
f 67/69/64 56/57/53 55/56/52
f 68/70/65 57/71/66 56/57/53
f 69/72/67 58/59/55 57/71/66
f 70/73/68 59/60/56 58/59/55
f 71/74/69 60/61/57 59/60/56
f 60/61/57 61/62/58 49/63/59
f 73/75/70 62/76/71 61/62/58
f 74/77/72 63/64/60 62/76/71
f 75/78/73 64/65/61 63/64/60
f 76/79/74 65/80/75 64/65/61
f 77/81/76 66/67/63 65/80/75
f 78/82/77 67/83/64 66/67/63
f 67/69/64 80/84/78 68/70/65
f 80/84/78 69/72/67 68/70/65
f 81/85/79 70/73/68 69/72/67
f 82/86/80 71/74/69 70/73/68
f 71/74/69 84/87/81 72/88/82
f 84/87/81 61/62/58 72/88/82
f 85/89/83 74/77/72 73/75/70
f 74/77/72 87/90/84 75/78/73
f 87/90/84 76/79/74 75/78/73
f 88/91/85 77/81/76 76/79/74
f 77/81/76 90/92/86 78/82/77
f 90/92/86 79/93/87 78/82/77
f 91/94/88 80/84/78 79/95/87
f 92/96/89 81/85/79 80/84/78
f 81/85/79 94/97/90 82/86/80
f 82/86/80 95/98/91 83/99/92
f 95/98/91 84/87/81 83/99/92
f 96/100/93 73/75/70 84/87/81
f 97/101/94 86/102/95 85/89/83
f 86/102/95 99/103/96 87/90/84
f 87/90/84 100/104/97 88/91/85
f 100/104/97 89/105/98 88/91/85
f 89/105/98 102/106/99 90/92/86
f 102/106/99 91/107/88 90/92/86
f 103/108/100 92/96/89 91/94/88
f 104/109/101 93/110/102 92/96/89
f 105/111/103 94/97/90 93/110/102
f 106/112/104 95/98/91 94/97/90
f 107/113/105 96/100/93 95/98/91
f 108/114/106 85/89/83 96/100/93
f 97/101/94 110/115/107 98/116/108
f 110/115/107 99/103/96 98/116/108
f 111/117/109 100/104/97 99/103/96
f 112/118/110 101/119/111 100/104/97
f 113/120/112 102/106/99 101/119/111
f 114/121/113 103/122/100 102/106/99
f 115/123/114 104/109/101 103/108/100
f 116/124/115 105/111/103 104/109/101
f 105/111/103 118/125/116 106/112/104
f 106/112/104 119/126/117 107/113/105
f 119/126/117 108/114/106 107/113/105
f 120/127/118 97/101/94 108/114/106
f 121/128/119 110/115/107 109/129/120
f 122/130/121 111/117/109 110/115/107
f 123/131/122 112/118/110 111/117/109
f 124/132/123 113/120/112 112/118/110
f 113/120/112 126/133/124 114/121/113
f 126/133/124 115/134/114 114/121/113
f 127/135/125 116/124/115 115/123/114
f 128/136/126 117/137/127 116/124/115
f 129/138/128 118/125/116 117/137/127
f 130/139/129 119/126/117 118/125/116
f 131/140/130 120/127/118 119/126/117
f 132/141/131 109/129/120 120/127/118
f 133/142/132 122/130/121 121/128/119
f 134/143/133 123/131/122 122/130/121
f 123/131/122 136/144/134 124/132/123
f 136/144/134 125/145/135 124/132/123
f 137/146/136 126/133/124 125/145/135
f 138/147/137 127/148/125 126/133/124
f 127/135/125 140/149/138 128/136/126
f 140/149/138 129/138/128 128/136/126
f 129/138/128 142/150/139 130/139/129
f 142/150/139 131/140/130 130/139/129
f 143/151/140 132/141/131 131/140/130
f 144/152/141 121/128/119 132/141/131
f 145/153/142 134/143/133 133/142/132
f 146/154/143 135/155/144 134/143/133
f 147/156/145 136/144/134 135/155/144
f 136/144/134 149/157/146 137/146/136
f 137/146/136 150/158/147 138/147/137
f 150/158/147 139/159/148 138/147/137
f 151/160/149 140/149/138 139/161/148
f 152/162/150 141/163/151 140/149/138
f 153/164/152 142/150/139 141/163/151
f 154/165/153 143/151/140 142/150/139
f 155/166/154 144/152/141 143/151/140
f 144/152/141 145/153/142 133/142/132
f 157/167/155 146/154/143 145/153/142
f 158/168/156 147/156/145 146/154/143
f 159/169/157 148/170/158 147/156/145
f 160/171/159 149/157/146 148/170/158
f 161/172/160 150/158/147 149/157/146
f 162/173/161 151/174/149 150/158/147
f 151/160/149 164/175/162 152/162/150
f 164/175/162 153/164/152 152/162/150
f 153/164/152 166/176/163 154/165/153
f 154/165/153 167/177/164 155/166/154
f 155/166/154 168/178/165 156/179/166
f 156/179/166 157/167/155 145/153/142
f 169/180/167 158/168/156 157/167/155
f 158/168/156 171/181/168 159/169/157
f 159/169/157 172/182/169 160/171/159
f 172/182/169 161/172/160 160/171/159
f 173/183/170 162/173/161 161/172/160
f 174/184/171 163/185/172 162/173/161
f 175/186/173 164/175/162 163/187/172
f 176/188/174 165/189/175 164/175/162
f 177/190/176 166/176/163 165/189/175
f 178/191/177 167/177/164 166/176/163
f 179/192/178 168/178/165 167/177/164
f 180/193/179 157/167/155 168/178/165
f 181/194/180 170/195/181 169/180/167
f 182/196/182 171/181/168 170/195/181
f 183/197/183 172/182/169 171/181/168
f 172/182/169 185/198/184 173/183/170
f 185/198/184 174/184/171 173/183/170
f 186/199/185 175/200/173 174/184/171
f 187/201/186 176/188/174 175/186/173
f 188/202/187 177/190/176 176/188/174
f 177/190/176 190/203/188 178/191/177
f 190/203/188 179/192/178 178/191/177
f 179/192/178 192/204/189 180/193/179
f 192/204/189 169/180/167 180/193/179
f 193/205/190 182/196/182 181/194/180
f 182/196/182 195/206/191 183/197/183
f 195/206/191 184/207/192 183/197/183
f 196/208/193 185/198/184 184/207/192
f 197/209/194 186/199/185 185/198/184
f 198/210/195 187/211/186 186/199/185
f 199/212/196 188/202/187 187/201/186
f 200/213/197 189/214/198 188/202/187
f 201/215/199 190/203/188 189/214/198
f 202/216/200 191/217/201 190/203/188
f 203/218/202 192/204/189 191/217/201
f 204/219/203 181/194/180 192/204/189
f 205/220/204 194/221/205 193/205/190
f 206/222/206 195/206/191 194/221/205
f 207/223/207 196/208/193 195/206/191
f 208/224/208 197/209/194 196/208/193
f 209/225/209 198/210/195 197/209/194
f 198/210/195 211/226/210 199/227/196
f 211/228/210 200/213/197 199/212/196
f 200/213/197 213/229/211 201/215/199
f 201/215/199 214/230/212 202/216/200
f 202/216/200 215/231/213 203/218/202
f 203/218/202 216/232/214 204/219/203
f 216/232/214 193/205/190 204/219/203
f 217/233/215 206/222/206 205/220/204
f 218/234/216 207/223/207 206/222/206
f 207/223/207 220/235/217 208/224/208
f 220/235/217 209/225/209 208/224/208
f 221/236/218 210/237/219 209/225/209
f 222/238/220 211/226/210 210/237/219
f 223/239/221 212/240/222 211/228/210
f 212/240/222 225/241/223 213/229/211
f 225/241/223 214/230/212 213/229/211
f 226/242/224 215/231/213 214/230/212
f 227/243/225 216/232/214 215/231/213
f 228/244/226 205/220/204 216/232/214
f 229/245/227 218/234/216 217/233/215
f 230/246/228 219/247/229 218/234/216
f 231/248/230 220/235/217 219/247/229
f 220/235/217 233/249/231 221/236/218
f 233/249/231 222/238/220 221/236/218
f 234/250/232 223/251/221 222/238/220
f 235/252/233 224/253/234 223/239/221
f 224/253/234 237/254/235 225/241/223
f 237/254/235 226/242/224 225/241/223
f 238/255/236 227/243/225 226/242/224
f 227/243/225 240/256/237 228/244/226
f 240/256/237 217/233/215 228/244/226
f 229/245/227 242/257/238 230/246/228
f 242/257/238 231/248/230 230/246/228
f 231/248/230 244/258/239 232/259/240
f 244/258/239 233/249/231 232/259/240
f 245/260/241 234/250/232 233/249/231
f 246/261/242 235/262/233 234/250/232
f 247/263/243 236/264/244 235/252/233
f 248/265/245 237/254/235 236/264/244
f 237/254/235 250/266/246 238/255/236
f 250/266/246 239/267/247 238/255/236
f 251/268/248 240/256/237 239/267/247
f 252/269/249 229/245/227 240/256/237
f 253/270/250 242/257/238 241/271/251
f 254/272/252 243/273/253 242/257/238
f 255/274/254 244/258/239 243/273/253
f 244/258/239 257/275/255 245/260/241
f 257/275/255 246/261/242 245/260/241
f 258/276/256 247/277/243 246/261/242
f 247/263/243 260/278/257 248/265/245
f 260/278/257 249/279/258 248/265/245
f 261/280/259 250/266/246 249/279/258
f 262/281/260 251/268/248 250/266/246
f 251/268/248 264/282/261 252/269/249
f 264/282/261 241/271/251 252/269/249
f 253/270/250 266/283/262 254/272/252
f 266/283/262 255/274/254 254/272/252
f 267/284/263 256/285/264 255/274/254
f 256/285/264 269/286/265 257/275/255
f 269/286/265 258/276/256 257/275/255
f 270/287/266 259/288/267 258/276/256
f 271/289/268 260/278/257 259/290/267
f 272/291/269 261/280/259 260/278/257
f 273/292/270 262/281/260 261/280/259
f 262/281/260 275/293/271 263/294/272
f 275/293/271 264/282/261 263/294/272
f 276/295/273 253/270/250 264/282/261
f 277/296/274 266/283/262 265/297/275
f 278/298/276 267/284/263 266/283/262
f 279/299/277 268/300/278 267/284/263
f 280/301/279 269/286/265 268/300/278
f 281/302/280 270/287/266 269/286/265
f 282/303/281 271/304/268 270/287/266
f 283/305/282 272/291/269 271/289/268
f 272/291/269 285/306/283 273/292/270
f 273/292/270 286/307/284 274/308/285
f 274/308/285 287/309/286 275/293/271
f 275/293/271 288/310/287 276/295/273
f 276/295/273 277/296/274 265/297/275
f 277/296/274 290/311/288 278/298/276
f 290/311/288 279/299/277 278/298/276
f 291/312/289 280/301/279 279/299/277
f 292/313/290 281/302/280 280/301/279
f 293/314/291 282/303/281 281/302/280
f 294/315/292 283/316/282 282/303/281
f 295/317/3 284/318/293 283/305/282
f 284/318/293 297/319/294 285/306/283
f 297/319/294 286/307/284 285/306/283
f 298/320/295 287/309/286 286/307/284
f 299/321/296 288/310/287 287/309/286
f 300/322/297 277/296/274 288/310/287
f 301/323/11 290/324/288 289/325/12
f 302/326/298 291/327/289 290/324/288
f 303/328/299 292/329/290 291/327/289
f 304/330/300 293/331/291 292/329/290
f 305/332/301 294/333/292 293/331/291
f 306/334/302 295/335/3 294/333/292
f 295/336/3 308/337/303 296/338/304
f 308/337/303 297/339/294 296/338/304
f 297/339/294 310/340/305 298/341/295
f 298/341/295 311/342/306 299/343/296
f 299/343/296 312/344/307 300/345/297
f 300/345/297 301/323/11 289/325/12
f 301/323/11 314/346/308 302/326/298
f 302/326/298 315/347/309 303/328/299
f 303/328/299 316/348/310 304/330/300
f 304/330/300 317/349/311 305/332/301
f 305/332/301 318/350/312 306/334/302
f 318/350/312 307/351/1 306/334/302
f 319/352/23 308/337/303 307/353/1
f 320/354/313 309/355/314 308/337/303
f 321/356/315 310/340/305 309/355/314
f 322/357/316 311/342/306 310/340/305
f 323/358/317 312/344/307 311/342/306
f 312/344/307 313/359/30 301/323/11
f 325/360/40 314/346/308 313/359/30
f 326/361/318 315/347/309 314/346/308
f 315/347/309 328/362/319 316/348/310
f 328/362/319 317/349/311 316/348/310
f 329/363/320 318/350/312 317/349/311
f 330/364/321 319/365/23 318/350/312
f 331/366/46 320/354/313 319/352/23
f 320/354/313 333/367/322 321/356/315
f 333/367/322 322/357/316 321/356/315
f 334/368/323 323/358/317 322/357/316
f 323/358/317 336/369/324 324/370/325
f 324/370/325 325/360/40 313/359/30
f 337/371/52 326/361/318 325/360/40
f 338/372/326 327/373/327 326/361/318
f 339/374/328 328/362/319 327/373/327
f 340/375/329 329/363/320 328/362/319
f 341/376/330 330/364/321 329/363/320
f 330/364/321 343/377/59 331/378/46
f 343/379/59 332/380/331 331/366/46
f 344/381/332 333/367/322 332/380/331
f 345/382/333 334/368/323 333/367/322
f 334/368/323 347/383/334 335/384/335
f 335/384/335 348/385/336 336/369/324
f 348/385/336 325/360/40 336/369/324
f 349/386/64 338/372/326 337/371/52
f 350/387/337 339/374/328 338/372/326
f 351/388/338 340/375/329 339/374/328
f 340/375/329 353/389/339 341/376/330
f 353/389/339 342/390/340 341/376/330
f 354/391/341 343/377/59 342/390/340
f 355/392/58 344/381/332 343/379/59
f 344/381/332 357/393/342 345/382/333
f 357/393/342 346/394/343 345/382/333
f 358/395/344 347/383/334 346/394/343
f 347/383/334 360/396/345 348/385/336
f 360/396/345 337/371/52 348/385/336
f 361/397/87 350/387/337 349/386/64
f 350/387/337 363/398/346 351/388/338
f 363/398/346 352/399/347 351/388/338
f 364/400/348 353/389/339 352/399/347
f 365/401/349 354/391/341 353/389/339
f 366/402/350 355/403/58 354/391/341
f 367/404/70 356/405/351 355/392/58
f 368/406/352 357/393/342 356/405/351
f 357/393/342 370/407/353 358/395/344
f 370/407/353 359/408/354 358/395/344
f 371/409/355 360/396/345 359/408/354
f 372/410/356 349/386/64 360/396/345
f 361/397/87 374/411/357 362/412/358
f 362/412/358 375/413/359 363/398/346
f 375/413/359 364/400/348 363/398/346
f 364/400/348 377/414/360 365/401/349
f 377/414/360 366/402/350 365/401/349
f 378/415/361 367/416/70 366/402/350
f 379/417/83 368/406/352 367/404/70
f 380/418/362 369/419/363 368/406/352
f 381/420/364 370/407/353 369/419/363
f 382/421/365 371/409/355 370/407/353
f 383/422/366 372/410/356 371/409/355
f 384/423/367 361/397/87 372/410/356
f 373/424/88 386/425/368 374/411/357
f 386/425/368 375/413/359 374/411/357
f 387/426/369 376/427/370 375/413/359
f 388/428/371 377/414/360 376/427/370
f 377/414/360 390/429/372 378/415/361
f 390/429/372 379/430/83 378/415/361
f 391/431/94 380/418/362 379/417/83
f 392/432/373 381/420/364 380/418/362
f 393/433/374 382/421/365 381/420/364
f 382/421/365 395/434/375 383/422/366
f 383/422/366 396/435/376 384/423/367
f 396/435/376 373/424/88 384/423/367
f 397/436/114 386/425/368 385/437/100
f 398/438/377 387/426/369 386/425/368
f 399/439/378 388/428/371 387/426/369
f 400/440/379 389/441/380 388/428/371
f 401/442/381 390/429/372 389/441/380
f 402/443/382 391/444/94 390/429/372
f 403/445/120 392/432/373 391/431/94
f 404/446/383 393/433/374 392/432/373
f 393/433/374 406/447/384 394/448/385
f 406/447/384 395/434/375 394/448/385
f 395/434/375 408/449/386 396/435/376
f 408/449/386 385/437/100 396/435/376
f 409/450/125 398/438/377 397/436/114
f 410/451/387 399/439/378 398/438/377
f 411/452/388 400/440/379 399/439/378
f 412/453/389 401/442/381 400/440/379
f 401/442/381 414/454/390 402/443/382
f 414/454/390 403/455/120 402/443/382
f 415/456/119 404/446/383 403/445/120
f 416/457/391 405/458/392 404/446/383
f 417/459/393 406/447/384 405/458/392
f 418/460/394 407/461/395 406/447/384
f 407/461/395 420/462/396 408/449/386
f 420/462/396 397/436/114 408/449/386
f 421/463/148 410/451/387 409/450/125
f 410/451/387 423/464/397 411/452/388
f 423/464/397 412/453/389 411/452/388
f 424/465/398 413/466/399 412/453/389
f 413/466/399 426/467/400 414/454/390
f 426/467/400 415/468/119 414/454/390
f 427/469/132 416/457/391 415/456/119
f 428/470/401 417/459/393 416/457/391
f 417/459/393 430/471/402 418/460/394
f 430/471/402 419/472/403 418/460/394
f 431/473/404 420/462/396 419/472/403
f 432/474/405 409/450/125 420/462/396
f 433/475/149 422/476/406 421/463/148
f 434/477/407 423/464/397 422/476/406
f 423/464/397 436/478/408 424/465/398
f 424/465/398 437/479/409 425/480/410
f 437/479/409 426/467/400 425/480/410
f 426/467/400 439/481/142 427/482/132
f 439/483/142 428/470/401 427/469/132
f 440/484/411 429/485/412 428/470/401
f 441/486/413 430/471/402 429/485/412
f 442/487/414 431/473/404 430/471/402
f 443/488/415 432/474/405 431/473/404
f 444/489/416 421/463/148 432/474/405
f 433/475/149 446/490/417 434/477/407
f 446/490/417 435/491/418 434/477/407
f 447/492/419 436/478/408 435/491/418
f 448/493/420 437/479/409 436/478/408
f 449/494/421 438/495/422 437/479/409
f 450/496/423 439/481/142 438/495/422
f 451/497/155 440/484/411 439/483/142
f 440/484/411 453/498/424 441/486/413
f 441/486/413 454/499/425 442/487/414
f 454/499/425 443/488/415 442/487/414
f 455/500/426 444/489/416 443/488/415
f 456/501/427 433/475/149 444/489/416
f 457/502/173 446/490/417 445/503/172
f 458/504/428 447/492/419 446/490/417
f 459/505/429 448/493/420 447/492/419
f 460/506/430 449/494/421 448/493/420
f 461/507/431 450/496/423 449/494/421
f 450/496/423 463/508/167 451/509/155
f 463/510/167 452/511/432 451/497/155
f 464/512/433 453/498/424 452/511/432
f 453/498/424 466/513/434 454/499/425
f 454/499/425 467/514/435 455/500/426
f 467/514/435 456/501/427 455/500/426
f 468/515/436 445/503/172 456/501/427
f 469/516/186 458/504/428 457/502/173
f 470/517/437 459/505/429 458/504/428
f 471/518/438 460/506/430 459/505/429
f 472/519/439 461/507/431 460/506/430
f 473/520/440 462/521/441 461/507/431
f 474/522/442 463/508/167 462/521/441
f 475/523/180 464/512/433 463/510/167
f 476/524/443 465/525/444 464/512/433
f 477/526/445 466/513/434 465/525/444
f 466/513/434 479/527/446 467/514/435
f 467/514/435 480/528/447 468/515/436
f 480/528/447 457/502/173 468/515/436
f 481/529/196 470/517/437 469/516/186
f 482/530/448 471/518/438 470/517/437
f 471/518/438 484/531/449 472/519/439
f 472/519/439 485/532/450 473/520/440
f 485/532/450 474/522/442 473/520/440
f 486/533/451 475/534/180 474/522/442
f 487/535/190 476/524/443 475/523/180
f 488/536/452 477/526/445 476/524/443
f 489/537/453 478/538/454 477/526/445
f 490/539/455 479/527/446 478/538/454
f 491/540/456 480/528/447 479/527/446
f 480/528/447 481/529/196 469/516/186
f 481/529/196 494/541/457 482/530/448
f 494/541/457 483/542/458 482/530/448
f 495/543/459 484/531/449 483/542/458
f 496/544/460 485/532/450 484/531/449
f 497/545/461 486/533/451 485/532/450
f 498/546/462 487/547/190 486/533/451
f 499/548/204 488/536/452 487/535/190
f 500/549/463 489/537/453 488/536/452
f 501/550/464 490/539/455 489/537/453
f 502/551/465 491/540/456 490/539/455
f 491/540/456 504/552/466 492/553/467
f 504/552/466 481/529/196 492/553/467
f 493/554/210 506/555/468 494/541/457
f 506/555/468 495/543/459 494/541/457
f 495/543/459 508/556/469 496/544/460
f 496/544/460 509/557/470 497/545/461
f 497/545/461 510/558/471 498/546/462
f 510/558/471 499/559/204 498/546/462
f 511/560/215 500/549/463 499/548/204
f 512/561/472 501/550/464 500/549/463
f 513/562/473 502/551/465 501/550/464
f 514/563/474 503/564/475 502/551/465
f 503/564/475 516/565/476 504/552/466
f 516/565/476 493/554/210 504/552/466
f 505/566/221 518/567/477 506/555/468
f 518/567/477 507/568/478 506/555/468
f 507/568/478 520/569/479 508/556/469
f 520/569/479 509/557/470 508/556/469
f 521/570/480 510/558/471 509/557/470
f 522/571/481 511/572/215 510/558/471
f 523/573/227 512/561/472 511/560/215
f 512/561/472 525/574/482 513/562/473
f 513/562/473 526/575/483 514/563/474
f 526/575/483 515/576/484 514/563/474
f 527/577/485 516/565/476 515/576/484
f 528/578/486 505/566/221 516/565/476
f 529/579/243 518/567/477 517/580/233
f 530/581/487 519/582/488 518/567/477
f 531/583/489 520/569/479 519/582/488
f 532/584/490 521/570/480 520/569/479
f 533/585/491 522/571/481 521/570/480
f 534/586/492 523/587/227 522/571/481
f 535/588/251 524/589/493 523/573/227
f 524/589/493 537/590/494 525/574/482
f 537/590/494 526/575/483 525/574/482
f 538/591/495 527/577/485 526/575/483
f 527/577/485 540/592/496 528/578/486
f 540/592/496 517/580/233 528/578/486
f 541/593/267 530/581/487 529/579/243
f 542/594/497 531/583/489 530/581/487
f 531/583/489 544/595/498 532/584/490
f 544/595/498 533/585/491 532/584/490
f 545/596/499 534/586/492 533/585/491
f 546/597/500 535/598/251 534/586/492
f 547/599/250 536/600/501 535/588/251
f 548/601/502 537/590/494 536/600/501
f 549/602/503 538/591/495 537/590/494
f 550/603/504 539/604/505 538/591/495
f 551/605/506 540/592/496 539/604/505
f 552/606/507 529/579/243 540/592/496
f 553/607/268 542/594/497 541/593/267
f 554/608/508 543/609/509 542/594/497
f 555/610/510 544/595/498 543/609/509
f 556/611/511 545/596/499 544/595/498
f 557/612/512 546/597/500 545/596/499
f 558/613/513 547/614/250 546/597/500
f 559/615/275 548/601/502 547/599/250
f 548/601/502 561/616/514 549/602/503
f 561/616/514 550/603/504 549/602/503
f 562/617/515 551/605/506 550/603/504
f 563/618/516 552/606/507 551/605/506
f 564/619/517 541/593/267 552/606/507
f 553/607/268 566/620/518 554/608/508
f 554/608/508 567/621/519 555/610/510
f 555/610/510 568/622/520 556/611/511
f 568/622/520 557/612/512 556/611/511
f 569/623/521 558/613/513 557/612/512
f 558/613/513 571/624/274 559/625/275
f 571/626/274 560/627/522 559/615/275
f 572/628/523 561/616/514 560/627/522
f 561/616/514 574/629/524 562/617/515
f 574/629/524 563/618/516 562/617/515
f 575/630/525 564/619/517 563/618/516
f 576/631/526 553/607/268 564/619/517
f 1/3/3 566/620/518 565/632/282
f 2/2/2 567/621/519 566/620/518
f 3/5/5 568/622/520 567/621/519
f 4/6/6 569/623/521 568/622/520
f 5/8/8 570/633/527 569/623/521
f 6/10/10 571/624/274 570/633/527
f 571/626/274 8/14/13 572/628/523
f 8/14/13 573/634/528 572/628/523
f 9/17/15 574/629/524 573/634/528
f 10/19/17 575/630/525 574/629/524
f 575/630/525 12/23/21 576/631/526
f 576/631/526 1/3/3 565/632/282
f 13/1/1 14/26/24 2/2/2
f 2/2/2 14/26/24 15/4/4
f 15/4/4 16/7/7 4/6/6
f 16/7/7 17/9/9 5/8/8
f 17/9/9 18/31/29 6/10/10
f 6/10/10 18/31/29 19/11/11
f 19/13/11 20/16/14 8/14/13
f 20/16/14 21/18/16 9/17/15
f 21/18/16 22/20/18 10/19/17
f 22/20/18 23/22/20 11/21/19
f 23/22/20 24/24/22 12/23/21
f 24/24/22 13/1/1 1/3/3
f 25/25/23 26/27/25 14/26/24
f 26/27/25 27/28/26 15/4/4
f 27/28/26 28/29/27 16/7/7
f 28/29/27 29/40/38 17/9/9
f 17/9/9 29/40/38 30/30/28
f 30/30/28 31/43/30 19/11/11
f 31/32/30 32/33/31 20/16/14
f 32/33/31 33/46/42 21/18/16
f 21/18/16 33/46/42 34/34/32
f 22/20/18 34/34/32 35/35/33
f 23/22/20 35/35/33 36/36/34
f 36/36/34 25/25/23 13/1/1
f 25/25/23 37/50/46 38/37/35
f 38/37/35 39/38/36 27/28/26
f 39/38/36 40/54/50 28/29/27
f 28/29/27 40/54/50 41/39/37
f 29/40/38 41/39/37 42/41/39
f 30/30/28 42/41/39 43/42/40
f 43/44/40 44/45/41 32/33/31
f 44/45/41 45/58/54 33/46/42
f 33/46/42 45/58/54 46/47/43
f 34/34/32 46/47/43 47/48/44
f 35/35/33 47/48/44 48/49/45
f 48/49/45 37/50/46 25/25/23
f 37/50/46 49/63/59 50/51/47
f 38/37/35 50/51/47 51/52/48
f 39/38/36 51/52/48 52/53/49
f 52/53/49 53/66/62 41/39/37
f 41/39/37 53/66/62 54/55/51
f 54/55/51 55/68/52 43/42/40
f 55/56/52 56/57/53 44/45/41
f 56/57/53 57/71/66 45/58/54
f 45/58/54 57/71/66 58/59/55
f 58/59/55 59/60/56 47/48/44
f 59/60/56 60/61/57 48/49/45
f 60/61/57 49/63/59 37/50/46
f 61/62/58 62/76/71 50/51/47
f 50/51/47 62/76/71 63/64/60
f 63/64/60 64/65/61 52/53/49
f 64/65/61 65/80/75 53/66/62
f 53/66/62 65/80/75 66/67/63
f 66/67/63 67/83/64 55/68/52
f 67/69/64 68/70/65 56/57/53
f 68/70/65 69/72/67 57/71/66
f 69/72/67 70/73/68 58/59/55
f 70/73/68 71/74/69 59/60/56
f 71/74/69 72/88/82 60/61/57
f 60/61/57 72/88/82 61/62/58
f 73/75/70 74/77/72 62/76/71
f 74/77/72 75/78/73 63/64/60
f 75/78/73 76/79/74 64/65/61
f 76/79/74 77/81/76 65/80/75
f 77/81/76 78/82/77 66/67/63
f 78/82/77 79/93/87 67/83/64
f 67/69/64 79/95/87 80/84/78
f 80/84/78 81/85/79 69/72/67
f 81/85/79 82/86/80 70/73/68
f 82/86/80 83/99/92 71/74/69
f 71/74/69 83/99/92 84/87/81
f 84/87/81 73/75/70 61/62/58
f 85/89/83 86/102/95 74/77/72
f 74/77/72 86/102/95 87/90/84
f 87/90/84 88/91/85 76/79/74
f 88/91/85 89/105/98 77/81/76
f 77/81/76 89/105/98 90/92/86
f 90/92/86 91/107/88 79/93/87
f 91/94/88 92/96/89 80/84/78
f 92/96/89 93/110/102 81/85/79
f 81/85/79 93/110/102 94/97/90
f 82/86/80 94/97/90 95/98/91
f 95/98/91 96/100/93 84/87/81
f 96/100/93 85/89/83 73/75/70
f 97/101/94 98/116/108 86/102/95
f 86/102/95 98/116/108 99/103/96
f 87/90/84 99/103/96 100/104/97
f 100/104/97 101/119/111 89/105/98
f 89/105/98 101/119/111 102/106/99
f 102/106/99 103/122/100 91/107/88
f 103/108/100 104/109/101 92/96/89
f 104/109/101 105/111/103 93/110/102
f 105/111/103 106/112/104 94/97/90
f 106/112/104 107/113/105 95/98/91
f 107/113/105 108/114/106 96/100/93
f 108/114/106 97/101/94 85/89/83
f 97/101/94 109/129/120 110/115/107
f 110/115/107 111/117/109 99/103/96
f 111/117/109 112/118/110 100/104/97
f 112/118/110 113/120/112 101/119/111
f 113/120/112 114/121/113 102/106/99
f 114/121/113 115/134/114 103/122/100
f 115/123/114 116/124/115 104/109/101
f 116/124/115 117/137/127 105/111/103
f 105/111/103 117/137/127 118/125/116
f 106/112/104 118/125/116 119/126/117
f 119/126/117 120/127/118 108/114/106
f 120/127/118 109/129/120 97/101/94
f 121/128/119 122/130/121 110/115/107
f 122/130/121 123/131/122 111/117/109
f 123/131/122 124/132/123 112/118/110
f 124/132/123 125/145/135 113/120/112
f 113/120/112 125/145/135 126/133/124
f 126/133/124 127/148/125 115/134/114
f 127/135/125 128/136/126 116/124/115
f 128/136/126 129/138/128 117/137/127
f 129/138/128 130/139/129 118/125/116
f 130/139/129 131/140/130 119/126/117
f 131/140/130 132/141/131 120/127/118
f 132/141/131 121/128/119 109/129/120
f 133/142/132 134/143/133 122/130/121
f 134/143/133 135/155/144 123/131/122
f 123/131/122 135/155/144 136/144/134
f 136/144/134 137/146/136 125/145/135
f 137/146/136 138/147/137 126/133/124
f 138/147/137 139/159/148 127/148/125
f 127/135/125 139/161/148 140/149/138
f 140/149/138 141/163/151 129/138/128
f 129/138/128 141/163/151 142/150/139
f 142/150/139 143/151/140 131/140/130
f 143/151/140 144/152/141 132/141/131
f 144/152/141 133/142/132 121/128/119
f 145/153/142 146/154/143 134/143/133
f 146/154/143 147/156/145 135/155/144
f 147/156/145 148/170/158 136/144/134
f 136/144/134 148/170/158 149/157/146
f 137/146/136 149/157/146 150/158/147
f 150/158/147 151/174/149 139/159/148
f 151/160/149 152/162/150 140/149/138
f 152/162/150 153/164/152 141/163/151
f 153/164/152 154/165/153 142/150/139
f 154/165/153 155/166/154 143/151/140
f 155/166/154 156/179/166 144/152/141
f 144/152/141 156/179/166 145/153/142
f 157/167/155 158/168/156 146/154/143
f 158/168/156 159/169/157 147/156/145
f 159/169/157 160/171/159 148/170/158
f 160/171/159 161/172/160 149/157/146
f 161/172/160 162/173/161 150/158/147
f 162/173/161 163/185/172 151/174/149
f 151/160/149 163/187/172 164/175/162
f 164/175/162 165/189/175 153/164/152
f 153/164/152 165/189/175 166/176/163
f 154/165/153 166/176/163 167/177/164
f 155/166/154 167/177/164 168/178/165
f 156/179/166 168/178/165 157/167/155
f 169/180/167 170/195/181 158/168/156
f 158/168/156 170/195/181 171/181/168
f 159/169/157 171/181/168 172/182/169
f 172/182/169 173/183/170 161/172/160
f 173/183/170 174/184/171 162/173/161
f 174/184/171 175/200/173 163/185/172
f 175/186/173 176/188/174 164/175/162
f 176/188/174 177/190/176 165/189/175
f 177/190/176 178/191/177 166/176/163
f 178/191/177 179/192/178 167/177/164
f 179/192/178 180/193/179 168/178/165
f 180/193/179 169/180/167 157/167/155
f 181/194/180 182/196/182 170/195/181
f 182/196/182 183/197/183 171/181/168
f 183/197/183 184/207/192 172/182/169
f 172/182/169 184/207/192 185/198/184
f 185/198/184 186/199/185 174/184/171
f 186/199/185 187/211/186 175/200/173
f 187/201/186 188/202/187 176/188/174
f 188/202/187 189/214/198 177/190/176
f 177/190/176 189/214/198 190/203/188
f 190/203/188 191/217/201 179/192/178
f 179/192/178 191/217/201 192/204/189
f 192/204/189 181/194/180 169/180/167
f 193/205/190 194/221/205 182/196/182
f 182/196/182 194/221/205 195/206/191
f 195/206/191 196/208/193 184/207/192
f 196/208/193 197/209/194 185/198/184
f 197/209/194 198/210/195 186/199/185
f 198/210/195 199/227/196 187/211/186
f 199/212/196 200/213/197 188/202/187
f 200/213/197 201/215/199 189/214/198
f 201/215/199 202/216/200 190/203/188
f 202/216/200 203/218/202 191/217/201
f 203/218/202 204/219/203 192/204/189
f 204/219/203 193/205/190 181/194/180
f 205/220/204 206/222/206 194/221/205
f 206/222/206 207/223/207 195/206/191
f 207/223/207 208/224/208 196/208/193
f 208/224/208 209/225/209 197/209/194
f 209/225/209 210/237/219 198/210/195
f 198/210/195 210/237/219 211/226/210
f 211/228/210 212/240/222 200/213/197
f 200/213/197 212/240/222 213/229/211
f 201/215/199 213/229/211 214/230/212
f 202/216/200 214/230/212 215/231/213
f 203/218/202 215/231/213 216/232/214
f 216/232/214 205/220/204 193/205/190
f 217/233/215 218/234/216 206/222/206
f 218/234/216 219/247/229 207/223/207
f 207/223/207 219/247/229 220/235/217
f 220/235/217 221/236/218 209/225/209
f 221/236/218 222/238/220 210/237/219
f 222/238/220 223/251/221 211/226/210
f 223/239/221 224/253/234 212/240/222
f 212/240/222 224/253/234 225/241/223
f 225/241/223 226/242/224 214/230/212
f 226/242/224 227/243/225 215/231/213
f 227/243/225 228/244/226 216/232/214
f 228/244/226 217/233/215 205/220/204
f 229/245/227 230/246/228 218/234/216
f 230/246/228 231/248/230 219/247/229
f 231/248/230 232/259/240 220/235/217
f 220/235/217 232/259/240 233/249/231
f 233/249/231 234/250/232 222/238/220
f 234/250/232 235/262/233 223/251/221
f 235/252/233 236/264/244 224/253/234
f 224/253/234 236/264/244 237/254/235
f 237/254/235 238/255/236 226/242/224
f 238/255/236 239/267/247 227/243/225
f 227/243/225 239/267/247 240/256/237
f 240/256/237 229/245/227 217/233/215
f 229/245/227 241/271/251 242/257/238
f 242/257/238 243/273/253 231/248/230
f 231/248/230 243/273/253 244/258/239
f 244/258/239 245/260/241 233/249/231
f 245/260/241 246/261/242 234/250/232
f 246/261/242 247/277/243 235/262/233
f 247/263/243 248/265/245 236/264/244
f 248/265/245 249/279/258 237/254/235
f 237/254/235 249/279/258 250/266/246
f 250/266/246 251/268/248 239/267/247
f 251/268/248 252/269/249 240/256/237
f 252/269/249 241/271/251 229/245/227
f 253/270/250 254/272/252 242/257/238
f 254/272/252 255/274/254 243/273/253
f 255/274/254 256/285/264 244/258/239
f 244/258/239 256/285/264 257/275/255
f 257/275/255 258/276/256 246/261/242
f 258/276/256 259/288/267 247/277/243
f 247/263/243 259/290/267 260/278/257
f 260/278/257 261/280/259 249/279/258
f 261/280/259 262/281/260 250/266/246
f 262/281/260 263/294/272 251/268/248
f 251/268/248 263/294/272 264/282/261
f 264/282/261 253/270/250 241/271/251
f 253/270/250 265/297/275 266/283/262
f 266/283/262 267/284/263 255/274/254
f 267/284/263 268/300/278 256/285/264
f 256/285/264 268/300/278 269/286/265
f 269/286/265 270/287/266 258/276/256
f 270/287/266 271/304/268 259/288/267
f 271/289/268 272/291/269 260/278/257
f 272/291/269 273/292/270 261/280/259
f 273/292/270 274/308/285 262/281/260
f 262/281/260 274/308/285 275/293/271
f 275/293/271 276/295/273 264/282/261
f 276/295/273 265/297/275 253/270/250
f 277/296/274 278/298/276 266/283/262
f 278/298/276 279/299/277 267/284/263
f 279/299/277 280/301/279 268/300/278
f 280/301/279 281/302/280 269/286/265
f 281/302/280 282/303/281 270/287/266
f 282/303/281 283/316/282 271/304/268
f 283/305/282 284/318/293 272/291/269
f 272/291/269 284/318/293 285/306/283
f 273/292/270 285/306/283 286/307/284
f 274/308/285 286/307/284 287/309/286
f 275/293/271 287/309/286 288/310/287
f 276/295/273 288/310/287 277/296/274
f 277/296/274 289/635/12 290/311/288
f 290/311/288 291/312/289 279/299/277
f 291/312/289 292/313/290 280/301/279
f 292/313/290 293/314/291 281/302/280
f 293/314/291 294/315/292 282/303/281
f 294/315/292 295/636/3 283/316/282
f 295/317/3 296/637/304 284/318/293
f 284/318/293 296/637/304 297/319/294
f 297/319/294 298/320/295 286/307/284
f 298/320/295 299/321/296 287/309/286
f 299/321/296 300/322/297 288/310/287
f 300/322/297 289/635/12 277/296/274
f 301/323/11 302/326/298 290/324/288
f 302/326/298 303/328/299 291/327/289
f 303/328/299 304/330/300 292/329/290
f 304/330/300 305/332/301 293/331/291
f 305/332/301 306/334/302 294/333/292
f 306/334/302 307/351/1 295/335/3
f 295/336/3 307/353/1 308/337/303
f 308/337/303 309/355/314 297/339/294
f 297/339/294 309/355/314 310/340/305
f 298/341/295 310/340/305 311/342/306
f 299/343/296 311/342/306 312/344/307
f 300/345/297 312/344/307 301/323/11
f 301/323/11 313/359/30 314/346/308
f 302/326/298 314/346/308 315/347/309
f 303/328/299 315/347/309 316/348/310
f 304/330/300 316/348/310 317/349/311
f 305/332/301 317/349/311 318/350/312
f 318/350/312 319/365/23 307/351/1
f 319/352/23 320/354/313 308/337/303
f 320/354/313 321/356/315 309/355/314
f 321/356/315 322/357/316 310/340/305
f 322/357/316 323/358/317 311/342/306
f 323/358/317 324/370/325 312/344/307
f 312/344/307 324/370/325 313/359/30
f 325/360/40 326/361/318 314/346/308
f 326/361/318 327/373/327 315/347/309
f 315/347/309 327/373/327 328/362/319
f 328/362/319 329/363/320 317/349/311
f 329/363/320 330/364/321 318/350/312
f 330/364/321 331/378/46 319/365/23
f 331/366/46 332/380/331 320/354/313
f 320/354/313 332/380/331 333/367/322
f 333/367/322 334/368/323 322/357/316
f 334/368/323 335/384/335 323/358/317
f 323/358/317 335/384/335 336/369/324
f 324/370/325 336/369/324 325/360/40
f 337/371/52 338/372/326 326/361/318
f 338/372/326 339/374/328 327/373/327
f 339/374/328 340/375/329 328/362/319
f 340/375/329 341/376/330 329/363/320
f 341/376/330 342/390/340 330/364/321
f 330/364/321 342/390/340 343/377/59
f 343/379/59 344/381/332 332/380/331
f 344/381/332 345/382/333 333/367/322
f 345/382/333 346/394/343 334/368/323
f 334/368/323 346/394/343 347/383/334
f 335/384/335 347/383/334 348/385/336
f 348/385/336 337/371/52 325/360/40
f 349/386/64 350/387/337 338/372/326
f 350/387/337 351/388/338 339/374/328
f 351/388/338 352/399/347 340/375/329
f 340/375/329 352/399/347 353/389/339
f 353/389/339 354/391/341 342/390/340
f 354/391/341 355/403/58 343/377/59
f 355/392/58 356/405/351 344/381/332
f 344/381/332 356/405/351 357/393/342
f 357/393/342 358/395/344 346/394/343
f 358/395/344 359/408/354 347/383/334
f 347/383/334 359/408/354 360/396/345
f 360/396/345 349/386/64 337/371/52
f 361/397/87 362/412/358 350/387/337
f 350/387/337 362/412/358 363/398/346
f 363/398/346 364/400/348 352/399/347
f 364/400/348 365/401/349 353/389/339
f 365/401/349 366/402/350 354/391/341
f 366/402/350 367/416/70 355/403/58
f 367/404/70 368/406/352 356/405/351
f 368/406/352 369/419/363 357/393/342
f 357/393/342 369/419/363 370/407/353
f 370/407/353 371/409/355 359/408/354
f 371/409/355 372/410/356 360/396/345
f 372/410/356 361/397/87 349/386/64
f 361/397/87 373/424/88 374/411/357
f 362/412/358 374/411/357 375/413/359
f 375/413/359 376/427/370 364/400/348
f 364/400/348 376/427/370 377/414/360
f 377/414/360 378/415/361 366/402/350
f 378/415/361 379/430/83 367/416/70
f 379/417/83 380/418/362 368/406/352
f 380/418/362 381/420/364 369/419/363
f 381/420/364 382/421/365 370/407/353
f 382/421/365 383/422/366 371/409/355
f 383/422/366 384/423/367 372/410/356
f 384/423/367 373/424/88 361/397/87
f 373/424/88 385/437/100 386/425/368
f 386/425/368 387/426/369 375/413/359
f 387/426/369 388/428/371 376/427/370
f 388/428/371 389/441/380 377/414/360
f 377/414/360 389/441/380 390/429/372
f 390/429/372 391/444/94 379/430/83
f 391/431/94 392/432/373 380/418/362
f 392/432/373 393/433/374 381/420/364
f 393/433/374 394/448/385 382/421/365
f 382/421/365 394/448/385 395/434/375
f 383/422/366 395/434/375 396/435/376
f 396/435/376 385/437/100 373/424/88
f 397/436/114 398/438/377 386/425/368
f 398/438/377 399/439/378 387/426/369
f 399/439/378 400/440/379 388/428/371
f 400/440/379 401/442/381 389/441/380
f 401/442/381 402/443/382 390/429/372
f 402/443/382 403/455/120 391/444/94
f 403/445/120 404/446/383 392/432/373
f 404/446/383 405/458/392 393/433/374
f 393/433/374 405/458/392 406/447/384
f 406/447/384 407/461/395 395/434/375
f 395/434/375 407/461/395 408/449/386
f 408/449/386 397/436/114 385/437/100
f 409/450/125 410/451/387 398/438/377
f 410/451/387 411/452/388 399/439/378
f 411/452/388 412/453/389 400/440/379
f 412/453/389 413/466/399 401/442/381
f 401/442/381 413/466/399 414/454/390
f 414/454/390 415/468/119 403/455/120
f 415/456/119 416/457/391 404/446/383
f 416/457/391 417/459/393 405/458/392
f 417/459/393 418/460/394 406/447/384
f 418/460/394 419/472/403 407/461/395
f 407/461/395 419/472/403 420/462/396
f 420/462/396 409/450/125 397/436/114
f 421/463/148 422/476/406 410/451/387
f 410/451/387 422/476/406 423/464/397
f 423/464/397 424/465/398 412/453/389
f 424/465/398 425/480/410 413/466/399
f 413/466/399 425/480/410 426/467/400
f 426/467/400 427/482/132 415/468/119
f 427/469/132 428/470/401 416/457/391
f 428/470/401 429/485/412 417/459/393
f 417/459/393 429/485/412 430/471/402
f 430/471/402 431/473/404 419/472/403
f 431/473/404 432/474/405 420/462/396
f 432/474/405 421/463/148 409/450/125
f 433/475/149 434/477/407 422/476/406
f 434/477/407 435/491/418 423/464/397
f 423/464/397 435/491/418 436/478/408
f 424/465/398 436/478/408 437/479/409
f 437/479/409 438/495/422 426/467/400
f 426/467/400 438/495/422 439/481/142
f 439/483/142 440/484/411 428/470/401
f 440/484/411 441/486/413 429/485/412
f 441/486/413 442/487/414 430/471/402
f 442/487/414 443/488/415 431/473/404
f 443/488/415 444/489/416 432/474/405
f 444/489/416 433/475/149 421/463/148
f 433/475/149 445/503/172 446/490/417
f 446/490/417 447/492/419 435/491/418
f 447/492/419 448/493/420 436/478/408
f 448/493/420 449/494/421 437/479/409
f 449/494/421 450/496/423 438/495/422
f 450/496/423 451/509/155 439/481/142
f 451/497/155 452/511/432 440/484/411
f 440/484/411 452/511/432 453/498/424
f 441/486/413 453/498/424 454/499/425
f 454/499/425 455/500/426 443/488/415
f 455/500/426 456/501/427 444/489/416
f 456/501/427 445/503/172 433/475/149
f 457/502/173 458/504/428 446/490/417
f 458/504/428 459/505/429 447/492/419
f 459/505/429 460/506/430 448/493/420
f 460/506/430 461/507/431 449/494/421
f 461/507/431 462/521/441 450/496/423
f 450/496/423 462/521/441 463/508/167
f 463/510/167 464/512/433 452/511/432
f 464/512/433 465/525/444 453/498/424
f 453/498/424 465/525/444 466/513/434
f 454/499/425 466/513/434 467/514/435
f 467/514/435 468/515/436 456/501/427
f 468/515/436 457/502/173 445/503/172
f 469/516/186 470/517/437 458/504/428
f 470/517/437 471/518/438 459/505/429
f 471/518/438 472/519/439 460/506/430
f 472/519/439 473/520/440 461/507/431
f 473/520/440 474/522/442 462/521/441
f 474/522/442 475/534/180 463/508/167
f 475/523/180 476/524/443 464/512/433
f 476/524/443 477/526/445 465/525/444
f 477/526/445 478/538/454 466/513/434
f 466/513/434 478/538/454 479/527/446
f 467/514/435 479/527/446 480/528/447
f 480/528/447 469/516/186 457/502/173
f 481/529/196 482/530/448 470/517/437
f 482/530/448 483/542/458 471/518/438
f 471/518/438 483/542/458 484/531/449
f 472/519/439 484/531/449 485/532/450
f 485/532/450 486/533/451 474/522/442
f 486/533/451 487/547/190 475/534/180
f 487/535/190 488/536/452 476/524/443
f 488/536/452 489/537/453 477/526/445
f 489/537/453 490/539/455 478/538/454
f 490/539/455 491/540/456 479/527/446
f 491/540/456 492/553/467 480/528/447
f 480/528/447 492/553/467 481/529/196
f 481/529/196 493/554/210 494/541/457
f 494/541/457 495/543/459 483/542/458
f 495/543/459 496/544/460 484/531/449
f 496/544/460 497/545/461 485/532/450
f 497/545/461 498/546/462 486/533/451
f 498/546/462 499/559/204 487/547/190
f 499/548/204 500/549/463 488/536/452
f 500/549/463 501/550/464 489/537/453
f 501/550/464 502/551/465 490/539/455
f 502/551/465 503/564/475 491/540/456
f 491/540/456 503/564/475 504/552/466
f 504/552/466 493/554/210 481/529/196
f 493/554/210 505/566/221 506/555/468
f 506/555/468 507/568/478 495/543/459
f 495/543/459 507/568/478 508/556/469
f 496/544/460 508/556/469 509/557/470
f 497/545/461 509/557/470 510/558/471
f 510/558/471 511/572/215 499/559/204
f 511/560/215 512/561/472 500/549/463
f 512/561/472 513/562/473 501/550/464
f 513/562/473 514/563/474 502/551/465
f 514/563/474 515/576/484 503/564/475
f 503/564/475 515/576/484 516/565/476
f 516/565/476 505/566/221 493/554/210
f 505/566/221 517/580/233 518/567/477
f 518/567/477 519/582/488 507/568/478
f 507/568/478 519/582/488 520/569/479
f 520/569/479 521/570/480 509/557/470
f 521/570/480 522/571/481 510/558/471
f 522/571/481 523/587/227 511/572/215
f 523/573/227 524/589/493 512/561/472
f 512/561/472 524/589/493 525/574/482
f 513/562/473 525/574/482 526/575/483
f 526/575/483 527/577/485 515/576/484
f 527/577/485 528/578/486 516/565/476
f 528/578/486 517/580/233 505/566/221
f 529/579/243 530/581/487 518/567/477
f 530/581/487 531/583/489 519/582/488
f 531/583/489 532/584/490 520/569/479
f 532/584/490 533/585/491 521/570/480
f 533/585/491 534/586/492 522/571/481
f 534/586/492 535/598/251 523/587/227
f 535/588/251 536/600/501 524/589/493
f 524/589/493 536/600/501 537/590/494
f 537/590/494 538/591/495 526/575/483
f 538/591/495 539/604/505 527/577/485
f 527/577/485 539/604/505 540/592/496
f 540/592/496 529/579/243 517/580/233
f 541/593/267 542/594/497 530/581/487
f 542/594/497 543/609/509 531/583/489
f 531/583/489 543/609/509 544/595/498
f 544/595/498 545/596/499 533/585/491
f 545/596/499 546/597/500 534/586/492
f 546/597/500 547/614/250 535/598/251
f 547/599/250 548/601/502 536/600/501
f 548/601/502 549/602/503 537/590/494
f 549/602/503 550/603/504 538/591/495
f 550/603/504 551/605/506 539/604/505
f 551/605/506 552/606/507 540/592/496
f 552/606/507 541/593/267 529/579/243
f 553/607/268 554/608/508 542/594/497
f 554/608/508 555/610/510 543/609/509
f 555/610/510 556/611/511 544/595/498
f 556/611/511 557/612/512 545/596/499
f 557/612/512 558/613/513 546/597/500
f 558/613/513 559/625/275 547/614/250
f 559/615/275 560/627/522 548/601/502
f 548/601/502 560/627/522 561/616/514
f 561/616/514 562/617/515 550/603/504
f 562/617/515 563/618/516 551/605/506
f 563/618/516 564/619/517 552/606/507
f 564/619/517 553/607/268 541/593/267
f 553/607/268 565/632/282 566/620/518
f 554/608/508 566/620/518 567/621/519
f 555/610/510 567/621/519 568/622/520
f 568/622/520 569/623/521 557/612/512
f 569/623/521 570/633/527 558/613/513
f 558/613/513 570/633/527 571/624/274
f 571/626/274 572/628/523 560/627/522
f 572/628/523 573/634/528 561/616/514
f 561/616/514 573/634/528 574/629/524
f 574/629/524 575/630/525 563/618/516
f 575/630/525 576/631/526 564/619/517
f 576/631/526 565/632/282 553/607/268
f 1/3/3 2/2/2 566/620/518
f 2/2/2 3/5/5 567/621/519
f 3/5/5 4/6/6 568/622/520
f 4/6/6 5/8/8 569/623/521
f 5/8/8 6/10/10 570/633/527
f 6/10/10 7/12/12 571/624/274
f 571/626/274 7/15/12 8/14/13
f 8/14/13 9/17/15 573/634/528
f 9/17/15 10/19/17 574/629/524
f 10/19/17 11/21/19 575/630/525
f 575/630/525 11/21/19 12/23/21
f 576/631/526 12/23/21 1/3/3
